[
	{
		"ID": 1,
		"Name": "Confrontation",
		"DefendWinDesc": "Eliminated the enemy!",
		"DefendLoseDesc": "Your team is eliminated!",
		"WinDesc": "Eliminated the enemy!",
		"LoseDesc": "Your team is eliminated!",
		"TurnMax": 10,
		"WinConditionsID": [
			999
		],
		"LoseConditionsID": [
			999
		],
		"Icon": "UI/Arena_ABS/2/Icon_Defensive_01.png"
	},
	{
		"ID": 2,
		"Name": "Hold your ground!",
		"DefendWinDesc": "Hold ground for 5 rounds, with less than 2 of your heroes being defeated!",
		"DefendLoseDesc": "Kill more than 2 units within 5 rounds!",
		"WinDesc": "Defeat at least 2 enemies within 5 rounds!",
		"LoseDesc": "Round limit is reached",
		"TurnMax": 10,
		"WinConditionsID": [
			1000,
			999
		],
		"LoseConditionsID": [
			999
		],
		"Icon": "UI/Arena_ABS/2/Icon_Defensive_02.png"
	},
	{
		"ID": 3,
		"Name": "Army Assault",
		"DefendWinDesc": "Defeat 2 enemies before your opponent does!",
		"DefendLoseDesc": "Enemy defeats 2 of your units first!",
		"WinDesc": "Defeat 2 enemies before your opponent does!",
		"LoseDesc": "Enemy defeats 2 of your units first!",
		"TurnMax": 10,
		"WinConditionsID": [
			1000,
			999
		],
		"LoseConditionsID": [
			1001,
			999
		],
		"Icon": "UI/Arena_ABS/2/Icon_Defensive_03.png"
	}
]