[
	{
		"ID": 1,
		"Name": "Season of Giving",
		"TabImage": "UI/TextImages/English_Uncharted_ABS/1/Exchange_001.png",
		"BackgroundImage": "UI/TextImages/English_Uncharted_ABS/1/Exchange_001.png",
		"StartPlayerResource": "Spine/General/Sherry_ABS/Sherry_Dragon/Sherry_Dragon03_Prefab.prefab",
		"MapId": 1,
		"ExchangeTable": [
			1,
			2,
			3,
			4
		],
		"CurrencyItemTable": [
			{
				"ItemId": 3505,
				"Multiplier": 4000,
				"ExtInfoID": 1
			},
			{
				"ItemId": 3506,
				"Multiplier": 4000,
				"ExtInfoID": 2
			},
			{
				"ItemId": 3507,
				"Multiplier": 4000,
				"ExtInfoID": 3
			},
			{
				"ItemId": 3508,
				"Multiplier": 4000,
				"ExtInfoID": 4
			}
		]
	},
	{
		"ID": 2,
		"Name": "Trails in Time FC",
		"TabImage": "UI/TextImages/English_Uncharted_ABS/1/Linkage_001.png",
		"BackgroundImage": "UI/TextImages/English_Uncharted_ABS/1/Linkage_001.png",
		"StartPlayerResource": "Spine/General/Mathew_ABS/Mathew_zs/Mathew_zs03_Prefab.prefab",
		"MapId": 2
	},
	{
		"ID": 3,
		"Name": "Trails in Time SC",
		"TabImage": "UI/TextImages/English_Uncharted_ABS/1/Linkage_002.png",
		"BackgroundImage": "UI/TextImages/English_Uncharted_ABS/1/Linkage_002.png",
		"StartPlayerResource": "Spine/General/Estelle_ABS/Estelle_Sakura/Estelle_Sakura2_Prefab.prefab",
		"MapId": 3,
		"ExchangeTable": [
			5,
			6,
			7
		],
		"CurrencyItemTable": [
			{
				"ItemId": 3511,
				"Multiplier": 4000,
				"ExtInfoID": 5
			},
			{
				"ItemId": 3512,
				"Multiplier": 4000,
				"ExtInfoID": 6
			},
			{
				"ItemId": 3513,
				"Multiplier": 4000,
				"ExtInfoID": 7
			}
		]
	},
	{
		"ID": 4,
		"Name": "Another Legend - Overlord Line",
		"TabImage": "UI/TextImages/English_Uncharted_ABS/1/Exchange_002.png",
		"BackgroundImage": "UI/TextImages/English_Uncharted_ABS/1/Exchange_002.png",
		"StartPlayerResource": "Spine/General/Elwin_ABS/Elwin/Elwin04_Prefab.prefab",
		"MapId": 4,
		"ExchangeTable": [
			8,
			9,
			10
		],
		"CurrencyItemTable": [
			{
				"ItemId": 3523,
				"Multiplier": 4000,
				"ExtInfoID": 8
			},
			{
				"ItemId": 3524,
				"Multiplier": 4000,
				"ExtInfoID": 9
			},
			{
				"ItemId": 3525,
				"Multiplier": 4000,
				"ExtInfoID": 10
			}
		]
	},
	{
		"ID": 5,
		"Name": "Sakura Strike Force",
		"TabImage": "UI/TextImages/English_Uncharted_ABS/1/Linkage_003.png",
		"BackgroundImage": "UI/TextImages/English_Uncharted_ABS/1/Linkage_003.png",
		"StartPlayerResource": "Spine/General/Anjelica_ABS/Anjelica_Magic/Anjelica_Engineer2_Prefab.prefab",
		"MapId": 5,
		"ExchangeTable": [
			11,
			12,
			13,
			14
		],
		"CurrencyItemTable": [
			{
				"ItemId": 3527,
				"Multiplier": 4000,
				"ExtInfoID": 11
			},
			{
				"ItemId": 3528,
				"Multiplier": 4000,
				"ExtInfoID": 12
			},
			{
				"ItemId": 3529,
				"Multiplier": 4000,
				"ExtInfoID": 13
			},
			{
				"ItemId": 3530,
				"Multiplier": 4000,
				"ExtInfoID": 14
			}
		]
	}
]