[
	{
		"ID": 1,
		"Title": "Langrisser",
		"Content": "Lunch time! A [Stamina] recovery meal has been prepared for you!",
		"Hour": 12,
		"Minute": 0,
		"PushCondition": "UserGuideCondition_",
		"PCParam": ""
	},
	{
		"ID": 2,
		"Title": "Langrisser",
		"Content": "[Joint Battle] is coming soon. Countless other Commanders are waiting for you!",
		"Hour": 13,
		"Minute": 55,
		"PushCondition": "UserGuideCondition_StoryNFinished",
		"PCParam": "16"
	},
	{
		"ID": 3,
		"Title": "Langrisser",
		"Content": "[Joint Battle] is coming soon. Countless other Commanders are waiting for you!",
		"Hour": 20,
		"Minute": 55,
		"PushCondition": "UserGuideCondition_StoryNFinished",
		"PCParam": "16"
	},
	{
		"ID": 4,
		"Title": "Langrisser",
		"Content": "Stamina fully restored! Go on your adventure!",
		"Hour": -1,
		"Minute": 0,
		"PushCondition": "UserGuideCondition_",
		"PCParam": ""
	},
	{
		"ID": 5,
		"Title": "Langrisser",
		"Content": "Arena tickets have been reset! Wish you good luck!",
		"Hour": -1,
		"Minute": 0,
		"PushCondition": "UserGuideCondition_",
		"PCParam": ""
	},
	{
		"ID": 6,
		"Title": "Langrisser",
		"Content": "New goods are on sale in the Black Market! Have a look now!",
		"Hour": -1,
		"Minute": 0,
		"PushCondition": "UserGuideCondition_",
		"PCParam": ""
	}
]