[
	{
		"ID": 1201,
		"Name": "Dragon Slayer",
		"SpecifiedHero": 12,
		"CharImageSkinResourceID": 1201,
		"SpecifiedModelSkinResource": [
			{
				"JobConnectionId": 124,
				"SkinResourceId": 1201
			},
			{
				"JobConnectionId": 122,
				"SkinResourceId": 1201
			},
			{
				"JobConnectionId": 125,
				"SkinResourceId": 12011
			},
			{
				"JobConnectionId": 123,
				"SkinResourceId": 12011
			}
		],
		"Desc": "El Sallia's seed of salvation. Always on a quest to slay the demon dragons for their treasure.",
		"Icon": "UI/Icon/HeroSkin_ABS/Icon_Elwin_Skin01.png",
		"GetPathDesc": "",
		"CharImageID": 0,
		"HeroInformationID": 0
	},
	{
		"ID": 1501,
		"Name": "Cherry Miko",
		"SpecifiedHero": 15,
		"CharImageSkinResourceID": 1501,
		"SpecifiedModelSkinResource": [
			{
				"JobConnectionId": 154,
				"SkinResourceId": 1501
			},
			{
				"JobConnectionId": 152,
				"SkinResourceId": 1501
			},
			{
				"JobConnectionId": 153,
				"SkinResourceId": 1501
			},
			{
				"JobConnectionId": 155,
				"SkinResourceId": 1501
			}
		],
		"Desc": "Like a cherry blossom, delicate and pure. When her spring comes, she will blossom.",
		"Icon": "UI/Icon/HeroSkin_ABS/Icon_RianaSkin_01.png",
		"GetPathDesc": "",
		"CharImageID": 0,
		"HeroInformationID": 0
	},
	{
		"ID": 601,
		"Name": "Gunslinger",
		"SpecifiedHero": 6,
		"CharImageSkinResourceID": 601,
		"SpecifiedModelSkinResource": [
			{
				"JobConnectionId": 65,
				"SkinResourceId": 601
			},
			{
				"JobConnectionId": 62,
				"SkinResourceId": 601
			},
			{
				"JobConnectionId": 64,
				"SkinResourceId": 601
			},
			{
				"JobConnectionId": 61,
				"SkinResourceId": 601
			}
		],
		"Desc": "On the wild frontier of El Sallia, this gunslinger can end a conflict in a single shot.",
		"Icon": "UI/Icon/HeroSkin_ABS/Icon_Leon_Skin01.png",
		"GetPathDesc": "",
		"CharImageID": 0,
		"HeroInformationID": 0
	},
	{
		"ID": 701,
		"Name": "Dark Warlord",
		"SpecifiedHero": 7,
		"CharImageSkinResourceID": 701,
		"SpecifiedModelSkinResource": [
			{
				"JobConnectionId": 74,
				"SkinResourceId": 701
			},
			{
				"JobConnectionId": 71,
				"SkinResourceId": 701
			},
			{
				"JobConnectionId": 75,
				"SkinResourceId": 701
			},
			{
				"JobConnectionId": 72,
				"SkinResourceId": 701
			}
		],
		"Desc": "With the awakened Alhazard in hand, nothing can stop this warlord's ambition.",
		"Icon": "UI/Icon/HeroSkin_ABS/Icon_Bernhardt_Skin01.png",
		"GetPathDesc": "",
		"CharImageID": 0,
		"HeroInformationID": 0
	},
	{
		"ID": 801,
		"Name": "Sonic Fairy",
		"SpecifiedHero": 8,
		"CharImageSkinResourceID": 801,
		"SpecifiedModelSkinResource": [
			{
				"JobConnectionId": 85,
				"SkinResourceId": 801
			},
			{
				"JobConnectionId": 82,
				"SkinResourceId": 801
			},
			{
				"JobConnectionId": 84,
				"SkinResourceId": 801
			},
			{
				"JobConnectionId": 81,
				"SkinResourceId": 801
			}
		],
		"Desc": "Turn up the volume with this supersonic fairy. She will rock your world!",
		"Icon": "UI/Icon/HeroSkin_ABS/Icon_LanaSkin_01.png",
		"GetPathDesc": "",
		"CharImageID": 0,
		"HeroInformationID": 0
	},
	{
		"ID": 1401,
		"Name": "Runaway Angel",
		"SpecifiedHero": 14,
		"CharImageSkinResourceID": 1401,
		"SpecifiedModelSkinResource": [
			{
				"JobConnectionId": 144,
				"SkinResourceId": 1401
			},
			{
				"JobConnectionId": 142,
				"SkinResourceId": 1401
			},
			{
				"JobConnectionId": 145,
				"SkinResourceId": 14011
			},
			{
				"JobConnectionId": 143,
				"SkinResourceId": 14011
			}
		],
		"Desc": "Cherie takes flight from the castle. This beautiful seraphim dances in the heavens above.",
		"Icon": "UI/Icon/HeroSkin_ABS/Icon_Sherry_Skin02.png",
		"GetPathDesc": "Obtained from the [Macho Lotto] event.",
		"CharImageID": 0,
		"HeroInformationID": 0
	},
	{
		"ID": 1402,
		"Name": "Princess of Kalxath",
		"SpecifiedHero": 14,
		"CharImageSkinResourceID": 1402,
		"SpecifiedModelSkinResource": [
			{
				"JobConnectionId": 144,
				"SkinResourceId": 1402
			},
			{
				"JobConnectionId": 142,
				"SkinResourceId": 1402
			}
		],
		"Desc": "An homage to the grandfather of Langrisser - Satoshi Urushihara. An eternal classic.",
		"Icon": "UI/Icon/HeroSkin_ABS/Icon_SherrySkin_01.png",
		"GetPathDesc": "",
		"CharImageID": 0,
		"HeroInformationID": 0
	},
	{
		"ID": 602,
		"Name": "Tidal Blade",
		"SpecifiedHero": 6,
		"CharImageSkinResourceID": 602,
		"SpecifiedModelSkinResource": [
			{
				"JobConnectionId": 61,
				"SkinResourceId": 602
			},
			{
				"JobConnectionId": 64,
				"SkinResourceId": 602
			},
			{
				"JobConnectionId": 65,
				"SkinResourceId": 602
			},
			{
				"JobConnectionId": 62,
				"SkinResourceId": 602
			}
		],
		"Desc": "Training with his exotic sword, this samurai stands alone against all odds.",
		"Icon": "UI/Icon/HeroSkin_ABS/Icon_Leon_Skin02.png",
		"GetPathDesc": "Obtained from the event - Echo of Light.",
		"CharImageID": 0,
		"HeroInformationID": 0
	},
	{
		"ID": 1202,
		"Name": "Shogun's Spear",
		"SpecifiedHero": 12,
		"CharImageSkinResourceID": 1202,
		"SpecifiedModelSkinResource": [
			{
				"JobConnectionId": 123,
				"SkinResourceId": 1202
			},
			{
				"JobConnectionId": 125,
				"SkinResourceId": 1202
			},
			{
				"JobConnectionId": 124,
				"SkinResourceId": 12021
			},
			{
				"JobConnectionId": 122,
				"SkinResourceId": 12021
			}
		],
		"Desc": "The first soldier of light and hope, the last hero of these troubled times.",
		"Icon": "UI/Icon/HeroSkin_ABS/Icon_Elwin_Skin02.png",
		"GetPathDesc": "Obtained from the event - Echo of Light.",
		"CharImageID": 0,
		"HeroInformationID": 0
	},
	{
		"ID": 1001,
		"Name": "Burning Passion",
		"SpecifiedHero": 10,
		"CharImageSkinResourceID": 1001,
		"SpecifiedModelSkinResource": [
			{
				"JobConnectionId": 103,
				"SkinResourceId": 1001
			},
			{
				"JobConnectionId": 105,
				"SkinResourceId": 1001
			},
			{
				"JobConnectionId": 104,
				"SkinResourceId": 1001
			},
			{
				"JobConnectionId": 102,
				"SkinResourceId": 1001
			}
		],
		"Desc": "Kalxath City! Are you ready to rock!? My solo jam will take care of this!",
		"Icon": "UI/Icon/HeroSkin_ABS/Icon_Ledyn_Skin01.png",
		"GetPathDesc": "",
		"CharImageID": 0,
		"HeroInformationID": 0
	},
	{
		"ID": 2501,
		"Name": "X-Rigüler",
		"SpecifiedHero": 25,
		"CharImageSkinResourceID": 2501,
		"SpecifiedModelSkinResource": [
			{
				"JobConnectionId": 254,
				"SkinResourceId": 2501
			},
			{
				"JobConnectionId": 251,
				"SkinResourceId": 2501
			},
			{
				"JobConnectionId": 255,
				"SkinResourceId": 25011
			},
			{
				"JobConnectionId": 252,
				"SkinResourceId": 25011
			}
		],
		"Desc": "Are you ready to drop the bass? This Dragon Rider is ready to shred!",
		"Icon": "UI/Icon/HeroSkin_ABS/Icon_Alutemurat_Skin01.png",
		"GetPathDesc": "",
		"CharImageID": 0,
		"HeroInformationID": 0
	},
	{
		"ID": 2101,
		"Name": "Mobile Suit Guardian",
		"SpecifiedHero": 21,
		"CharImageSkinResourceID": 2101,
		"SpecifiedModelSkinResource": [
			{
				"JobConnectionId": 214,
				"SkinResourceId": 2101
			},
			{
				"JobConnectionId": 212,
				"SkinResourceId": 2101
			},
			{
				"JobConnectionId": 215,
				"SkinResourceId": 21011
			},
			{
				"JobConnectionId": 211,
				"SkinResourceId": 21011
			}
		],
		"Desc": "Is that just a meteorite? Let's get rid of it!",
		"Icon": "UI/Icon/HeroSkin_ABS/Icon_Bargas_Skin01.png",
		"GetPathDesc": "Not available yet!",
		"CharImageID": 0,
		"HeroInformationID": 0
	},
	{
		"ID": 1801,
		"Name": "Pirate Queen",
		"SpecifiedHero": 18,
		"CharImageSkinResourceID": 1801,
		"SpecifiedModelSkinResource": [
			{
				"JobConnectionId": 184,
				"SkinResourceId": 1801
			},
			{
				"JobConnectionId": 182,
				"SkinResourceId": 1801
			},
			{
				"JobConnectionId": 185,
				"SkinResourceId": 1801
			},
			{
				"JobConnectionId": 181,
				"SkinResourceId": 1801
			}
		],
		"Desc": "Guilty? Never! Get in gear and let us go on a grand voyage in search of the legendary treasure!",
		"Icon": "UI/Icon/HeroSkin_ABS/Icon_Imelda_Skin01.png",
		"GetPathDesc": "",
		"CharImageID": 0,
		"HeroInformationID": 0
	},
	{
		"ID": 501,
		"Name": "Riot Police",
		"SpecifiedHero": 5,
		"CharImageSkinResourceID": 501,
		"SpecifiedModelSkinResource": [
			{
				"JobConnectionId": 54,
				"SkinResourceId": 501
			},
			{
				"JobConnectionId": 52,
				"SkinResourceId": 501
			},
			{
				"JobConnectionId": 55,
				"SkinResourceId": 501
			},
			{
				"JobConnectionId": 53,
				"SkinResourceId": 501
			}
		],
		"Desc": "You want to explode on me? You'll have to try harder! I have a shield! Oh, is it just a special hug?",
		"Icon": "UI/Icon/HeroSkin_ABS/Icon_Chris_Skin01.png",
		"GetPathDesc": "",
		"CharImageID": 0,
		"HeroInformationID": 0
	},
	{
		"ID": 2601,
		"Name": "Goddess of War",
		"SpecifiedHero": 26,
		"CharImageSkinResourceID": 2601,
		"SpecifiedModelSkinResource": [
			{
				"JobConnectionId": 265,
				"SkinResourceId": 2601
			},
			{
				"JobConnectionId": 262,
				"SkinResourceId": 2601
			},
			{
				"JobConnectionId": 264,
				"SkinResourceId": 26011
			},
			{
				"JobConnectionId": 261,
				"SkinResourceId": 26011
			}
		],
		"Desc": "The first time you pick up a sword, you become a target. And the moment you kill...everything changes.",
		"Icon": "UI/Icon/HeroSkin_ABS/Icon_Luna_Skin01.png",
		"GetPathDesc": "Obtained from the [Macho Lotto] event.",
		"CharImageID": 0,
		"HeroInformationID": 0
	},
	{
		"ID": 5201,
		"Name": "Drakesoul Blade",
		"SpecifiedHero": 52,
		"CharImageSkinResourceID": 5201,
		"SpecifiedModelSkinResource": [
			{
				"JobConnectionId": 524,
				"SkinResourceId": 5201
			},
			{
				"JobConnectionId": 521,
				"SkinResourceId": 5201
			},
			{
				"JobConnectionId": 525,
				"SkinResourceId": 52011
			},
			{
				"JobConnectionId": 522,
				"SkinResourceId": 52011
			}
		],
		"Desc": "The dragon swims in shallow waters, and soars through the heavens.",
		"Icon": "UI/Icon/HeroSkin_ABS/Icon_Angelina_Skin01.png",
		"GetPathDesc": "Obtained from the event - Echo of Light.",
		"CharImageID": 0,
		"HeroInformationID": 0
	},
	{
		"ID": 5101,
		"Name": "Shining Shoot",
		"SpecifiedHero": 51,
		"CharImageSkinResourceID": 5101,
		"SpecifiedModelSkinResource": [
			{
				"JobConnectionId": 515,
				"SkinResourceId": 5101
			},
			{
				"JobConnectionId": 512,
				"SkinResourceId": 5101
			},
			{
				"JobConnectionId": 514,
				"SkinResourceId": 5101
			},
			{
				"JobConnectionId": 511,
				"SkinResourceId": 5101
			}
		],
		"Desc": "Bamboo is like green steel, as brilliant as the moon.",
		"Icon": "UI/Icon/HeroSkin_ABS/Icon_SchelFaniel_Skin01.png",
		"GetPathDesc": "Obtained from the event - Echo of Light.",
		"CharImageID": 0,
		"HeroInformationID": 0
	},
	{
		"ID": 1301,
		"Name": "Magical Mystery",
		"SpecifiedHero": 13,
		"CharImageSkinResourceID": 1301,
		"SpecifiedModelSkinResource": [
			{
				"JobConnectionId": 134,
				"SkinResourceId": 1301
			},
			{
				"JobConnectionId": 132,
				"SkinResourceId": 1301
			},
			{
				"JobConnectionId": 135,
				"SkinResourceId": 1301
			},
			{
				"JobConnectionId": 131,
				"SkinResourceId": 1301
			}
		],
		"Desc": "If you dare to laugh at Hein's broom and big hat, he'll turn you into a... Quack, quack?",
		"Icon": "UI/Icon/HeroSkin_ABS/Icon_Hein_Skin01.png",
		"GetPathDesc": "",
		"CharImageID": 0,
		"HeroInformationID": 0
	},
	{
		"ID": 4901,
		"Name": "Shadows of Summer",
		"SpecifiedHero": 49,
		"CharImageSkinResourceID": 4901,
		"SpecifiedModelSkinResource": [
			{
				"JobConnectionId": 494,
				"SkinResourceId": 4901
			},
			{
				"JobConnectionId": 491,
				"SkinResourceId": 4901
			},
			{
				"JobConnectionId": 495,
				"SkinResourceId": 49011
			},
			{
				"JobConnectionId": 492,
				"SkinResourceId": 49011
			}
		],
		"Desc": "Don't you want to cool down with her?",
		"Icon": "UI/Icon/HeroSkin_ABS/Icon_Fana_SkinSP01.png",
		"GetPathDesc": "Limited Sale",
		"CharImageID": 0,
		"HeroInformationID": 0
	},
	{
		"ID": 3301,
		"Name": "Sunshine Dream",
		"SpecifiedHero": 33,
		"CharImageSkinResourceID": 3301,
		"SpecifiedModelSkinResource": [
			{
				"JobConnectionId": 334,
				"SkinResourceId": 3301
			},
			{
				"JobConnectionId": 332,
				"SkinResourceId": 3301
			},
			{
				"JobConnectionId": 335,
				"SkinResourceId": 3301
			},
			{
				"JobConnectionId": 331,
				"SkinResourceId": 3301
			}
		],
		"Desc": "Hold me tight and let's go surfing together!",
		"Icon": "UI/Icon/HeroSkin_ABS/Icon_Freya_SkinSP01.png",
		"GetPathDesc": "Acquired from the [Swimsuit Summer Festival] event.",
		"CharImageID": 0,
		"HeroInformationID": 0
	},
	{
		"ID": 802,
		"Name": "Coastal Beauty",
		"SpecifiedHero": 8,
		"CharImageSkinResourceID": 802,
		"SpecifiedModelSkinResource": [
			{
				"JobConnectionId": 84,
				"SkinResourceId": 802
			},
			{
				"JobConnectionId": 81,
				"SkinResourceId": 802
			},
			{
				"JobConnectionId": 85,
				"SkinResourceId": 802
			},
			{
				"JobConnectionId": 82,
				"SkinResourceId": 802
			}
		],
		"Desc": "This cold beauty's rare smile is warmer than a summer's day.",
		"Icon": "UI/Icon/HeroSkin_ABS/Icon_Lana_SkinSP01.png",
		"GetPathDesc": "Limited Sale",
		"CharImageID": 0,
		"HeroInformationID": 0
	},
	{
		"ID": 2602,
		"Name": "Water Bomb Attack",
		"SpecifiedHero": 26,
		"CharImageSkinResourceID": 2602,
		"SpecifiedModelSkinResource": [
			{
				"JobConnectionId": 264,
				"SkinResourceId": 2602
			},
			{
				"JobConnectionId": 261,
				"SkinResourceId": 2602
			},
			{
				"JobConnectionId": 265,
				"SkinResourceId": 26021
			},
			{
				"JobConnectionId": 262,
				"SkinResourceId": 26021
			}
		],
		"Desc": "Summer sea monster showdown!",
		"Icon": "UI/Icon/HeroSkin_ABS/Icon_Luna_SkinSP01.png",
		"GetPathDesc": "Limited Sale",
		"CharImageID": 0,
		"HeroInformationID": 0
	},
	{
		"ID": 1101,
		"Name": "Romantic Summer",
		"SpecifiedHero": 11,
		"CharImageSkinResourceID": 1101,
		"SpecifiedModelSkinResource": [
			{
				"JobConnectionId": 115,
				"SkinResourceId": 1101
			},
			{
				"JobConnectionId": 113,
				"SkinResourceId": 1101
			},
			{
				"JobConnectionId": 114,
				"SkinResourceId": 11011
			},
			{
				"JobConnectionId": 112,
				"SkinResourceId": 11011
			}
		],
		"Desc": "Narm, the target this time is your heart!",
		"Icon": "UI/Icon/HeroSkin_ABS/Icon_Norm_SkinSP01.png",
		"GetPathDesc": "Limited Sale",
		"CharImageID": 0,
		"HeroInformationID": 0
	},
	{
		"ID": 2901,
		"Name": "Beach Babe",
		"SpecifiedHero": 29,
		"CharImageSkinResourceID": 2901,
		"SpecifiedModelSkinResource": [
			{
				"JobConnectionId": 294,
				"SkinResourceId": 2901
			},
			{
				"JobConnectionId": 292,
				"SkinResourceId": 2901
			},
			{
				"JobConnectionId": 295,
				"SkinResourceId": 2901
			},
			{
				"JobConnectionId": 293,
				"SkinResourceId": 2901
			}
		],
		"Desc": "The battle for supreme cuteness cannot be lost to the Bikini Sisters!",
		"Icon": "UI/Icon/HeroSkin_ABS/Icon_Tialice_SkinSP01.png",
		"GetPathDesc": "Limited Sale",
		"CharImageID": 0,
		"HeroInformationID": 0
	},
	{
		"ID": 803,
		"Name": "Cherry Moon",
		"SpecifiedHero": 8,
		"CharImageSkinResourceID": 803,
		"SpecifiedModelSkinResource": [
			{
				"JobConnectionId": 85,
				"SkinResourceId": 803
			},
			{
				"JobConnectionId": 82,
				"SkinResourceId": 803
			},
			{
				"JobConnectionId": 84,
				"SkinResourceId": 803
			},
			{
				"JobConnectionId": 81,
				"SkinResourceId": 803
			}
		],
		"Desc": "Beautiful and unknown flowers... For whom do they blossom?",
		"Icon": "UI/Icon/HeroSkin_ABS/Icon_Lana_Skin02.png",
		"GetPathDesc": "Obtained from the event - Echo of Light.",
		"CharImageID": 0,
		"HeroInformationID": 0
	},
	{
		"ID": 901,
		"Name": "Soul Reaper",
		"SpecifiedHero": 9,
		"CharImageSkinResourceID": 901,
		"SpecifiedModelSkinResource": [
			{
				"JobConnectionId": 94,
				"SkinResourceId": 901
			},
			{
				"JobConnectionId": 91,
				"SkinResourceId": 901
			},
			{
				"JobConnectionId": 95,
				"SkinResourceId": 9011
			},
			{
				"JobConnectionId": 92,
				"SkinResourceId": 9011
			}
		],
		"Desc": "In order to create a new world from chaos, death is the first step.",
		"Icon": "UI/Icon/HeroSkin_ABS/Icon_Bozel_Skin01.png",
		"GetPathDesc": "",
		"CharImageID": 0,
		"HeroInformationID": 0
	},
	{
		"ID": 3601,
		"Name": "Deadly Gentleman",
		"SpecifiedHero": 36,
		"CharImageSkinResourceID": 3601,
		"SpecifiedModelSkinResource": [
			{
				"JobConnectionId": 364,
				"SkinResourceId": 3601
			},
			{
				"JobConnectionId": 362,
				"SkinResourceId": 3601
			},
			{
				"JobConnectionId": 365,
				"SkinResourceId": 3601
			},
			{
				"JobConnectionId": 363,
				"SkinResourceId": 3601
			}
		],
		"Desc": "His guile ensures that his white suit is never tarnished by blood.",
		"Icon": "UI/Icon/HeroSkin_ABS/Icon_SilverWolf_Skin01.png",
		"GetPathDesc": "",
		"CharImageID": 0,
		"HeroInformationID": 0
	},
	{
		"ID": 2801,
		"Name": "Demon Elf",
		"SpecifiedHero": 28,
		"CharImageSkinResourceID": 2801,
		"SpecifiedModelSkinResource": [
			{
				"JobConnectionId": 285,
				"SkinResourceId": 2801
			},
			{
				"JobConnectionId": 282,
				"SkinResourceId": 2801
			},
			{
				"JobConnectionId": 284,
				"SkinResourceId": 2801
			},
			{
				"JobConnectionId": 281,
				"SkinResourceId": 2801
			}
		],
		"Desc": "Alhazard bathes in blood... The girl within has been forever lost.",
		"Icon": "UI/Icon/HeroSkin_ABS/Icon_Zalrahda_Skin01.png",
		"GetPathDesc": "Obtained from the event - Echo of Light.",
		"CharImageID": 50,
		"HeroInformationID": 50
	},
	{
		"ID": 1102,
		"Name": "Galactic Hero",
		"SpecifiedHero": 11,
		"CharImageSkinResourceID": 1102,
		"SpecifiedModelSkinResource": [
			{
				"JobConnectionId": 114,
				"SkinResourceId": 1102
			},
			{
				"JobConnectionId": 112,
				"SkinResourceId": 1102
			},
			{
				"JobConnectionId": 115,
				"SkinResourceId": 11021
			},
			{
				"JobConnectionId": 113,
				"SkinResourceId": 11021
			}
		],
		"Desc": "It not only takes courage to navigate the sea of stars, but also knowledge.",
		"Icon": "UI/Icon/HeroSkin_ABS/Icon_Norm_Skin01.png",
		"GetPathDesc": "",
		"CharImageID": 0,
		"HeroInformationID": 0
	},
	{
		"ID": 2701,
		"Name": "Storm God",
		"SpecifiedHero": 27,
		"CharImageSkinResourceID": 2701,
		"SpecifiedModelSkinResource": [
			{
				"JobConnectionId": 274,
				"SkinResourceId": 2701
			},
			{
				"JobConnectionId": 271,
				"SkinResourceId": 2701
			},
			{
				"JobConnectionId": 275,
				"SkinResourceId": 27011
			},
			{
				"JobConnectionId": 272,
				"SkinResourceId": 27011
			}
		],
		"Desc": "When the stargate opens, the ancient wargod will emerge amid world-shaking thunder with a mighty hammer.",
		"Icon": "UI/Icon/HeroSkin_ABS/Icon_Dehault_Skin01.png",
		"GetPathDesc": "",
		"CharImageID": 0,
		"HeroInformationID": 0
	},
	{
		"ID": 3302,
		"Name": "Spartacus",
		"SpecifiedHero": 33,
		"CharImageSkinResourceID": 3302,
		"SpecifiedModelSkinResource": [
			{
				"JobConnectionId": 334,
				"SkinResourceId": 3302
			},
			{
				"JobConnectionId": 332,
				"SkinResourceId": 3302
			},
			{
				"JobConnectionId": 335,
				"SkinResourceId": 33021
			},
			{
				"JobConnectionId": 331,
				"SkinResourceId": 33021
			}
		],
		"Desc": "Men! This is... Sparta!",
		"Icon": "UI/Icon/HeroSkin_ABS/Icon_Freya_Skin01.png",
		"GetPathDesc": "",
		"CharImageID": 0,
		"HeroInformationID": 0
	},
	{
		"ID": 1701,
		"Name": "Beat Breaker",
		"SpecifiedHero": 17,
		"CharImageSkinResourceID": 1701,
		"SpecifiedModelSkinResource": [
			{
				"JobConnectionId": 174,
				"SkinResourceId": 1701
			},
			{
				"JobConnectionId": 171,
				"SkinResourceId": 1701
			},
			{
				"JobConnectionId": 175,
				"SkinResourceId": 1701
			},
			{
				"JobConnectionId": 172,
				"SkinResourceId": 1701
			}
		],
		"Desc": "Punk is not just about the hair! The most important thing is the rhythm!",
		"Icon": "UI/Icon/HeroSkin_ABS/Icon_Eggbert_Skin01.png",
		"GetPathDesc": "Not available yet!",
		"CharImageID": 0,
		"HeroInformationID": 0
	},
	{
		"ID": 102,
		"Name": "Wine Connoisseur",
		"SpecifiedHero": 1,
		"CharImageSkinResourceID": 102,
		"SpecifiedModelSkinResource": [
			{
				"JobConnectionId": 18,
				"SkinResourceId": 102
			},
			{
				"JobConnectionId": 13,
				"SkinResourceId": 102
			},
			{
				"JobConnectionId": 21,
				"SkinResourceId": 1021
			},
			{
				"JobConnectionId": 16,
				"SkinResourceId": 1021
			},
			{
				"JobConnectionId": 17,
				"SkinResourceId": 1022
			},
			{
				"JobConnectionId": 12,
				"SkinResourceId": 1022
			},
			{
				"JobConnectionId": 19,
				"SkinResourceId": 1023
			},
			{
				"JobConnectionId": 14,
				"SkinResourceId": 1023
			},
			{
				"JobConnectionId": 20,
				"SkinResourceId": 1024
			},
			{
				"JobConnectionId": 15,
				"SkinResourceId": 1024
			}
		],
		"Desc": "Hey! No drinking on the job!",
		"Icon": "UI/Icon/HeroSkin_ABS/Icon_Matthew_Skin01.png",
		"GetPathDesc": "Acquired from the [Epic Eatery] event.",
		"CharImageID": 0,
		"HeroInformationID": 0
	},
	{
		"ID": 301,
		"Name": "Chef de Cuisine",
		"SpecifiedHero": 3,
		"CharImageSkinResourceID": 301,
		"SpecifiedModelSkinResource": [
			{
				"JobConnectionId": 35,
				"SkinResourceId": 301
			},
			{
				"JobConnectionId": 33,
				"SkinResourceId": 301
			},
			{
				"JobConnectionId": 34,
				"SkinResourceId": 3011
			}
		],
		"Desc": "Today, we'll show you how to make a dish suitable for everyone...",
		"Icon": "UI/Icon/HeroSkin_ABS/Icon_Grenier_Skin01.png",
		"GetPathDesc": "",
		"CharImageID": 0,
		"HeroInformationID": 0
	},
	{
		"ID": 401,
		"Name": "Magic Maid",
		"SpecifiedHero": 4,
		"CharImageSkinResourceID": 401,
		"SpecifiedModelSkinResource": [
			{
				"JobConnectionId": 45,
				"SkinResourceId": 401
			},
			{
				"JobConnectionId": 43,
				"SkinResourceId": 401
			},
			{
				"JobConnectionId": 42,
				"SkinResourceId": 401
			}
		],
		"Desc": "Welcome back, master! You've had a long day, haven't you?",
		"Icon": "UI/Icon/HeroSkin_ABS/Icon_Aimeeda_Skin01.png",
		"GetPathDesc": "",
		"CharImageID": 0,
		"HeroInformationID": 0
	},
	{
		"ID": 2902,
		"Name": "Godsend",
		"SpecifiedHero": 29,
		"CharImageSkinResourceID": 2902,
		"SpecifiedModelSkinResource": [
			{
				"JobConnectionId": 294,
				"SkinResourceId": 2902
			},
			{
				"JobConnectionId": 292,
				"SkinResourceId": 2902
			},
			{
				"JobConnectionId": 295,
				"SkinResourceId": 2902
			},
			{
				"JobConnectionId": 293,
				"SkinResourceId": 2902
			}
		],
		"Desc": "I'm not afraid of anything, because the Goddess is always with me!",
		"Icon": "UI/Icon/HeroSkin_ABS/Icon_Chris_Skin02.png",
		"GetPathDesc": "Obtained from the [Macho Lotto] event.",
		"CharImageID": 0,
		"HeroInformationID": 0
	},
	{
		"ID": 5301,
		"Name": "Dark Hunter",
		"SpecifiedHero": 53,
		"CharImageSkinResourceID": 5301,
		"SpecifiedModelSkinResource": [
			{
				"JobConnectionId": 534,
				"SkinResourceId": 5301
			},
			{
				"JobConnectionId": 531,
				"SkinResourceId": 5301
			},
			{
				"JobConnectionId": 535,
				"SkinResourceId": 53011
			},
			{
				"JobConnectionId": 532,
				"SkinResourceId": 53011
			}
		],
		"Desc": "We're merely passers-by in this world. The forgotten shall wait for their demise in silence...",
		"Icon": "UI/Icon/HeroSkin_ABS/Icon_Ranford_Skin01.png",
		"GetPathDesc": "Obtained from the event - Echo of Light.",
		"CharImageID": 0,
		"HeroInformationID": 0
	},
	{
		"ID": 5401,
		"Name": "Blood Succubus",
		"SpecifiedHero": 54,
		"CharImageSkinResourceID": 5401,
		"SpecifiedModelSkinResource": [
			{
				"JobConnectionId": 545,
				"SkinResourceId": 5401
			},
			{
				"JobConnectionId": 542,
				"SkinResourceId": 5401
			},
			{
				"JobConnectionId": 544,
				"SkinResourceId": 54011
			},
			{
				"JobConnectionId": 541,
				"SkinResourceId": 54011
			}
		],
		"Desc": "Nothing in this world inspires me, for life itself is meaningless.",
		"Icon": "UI/Icon/HeroSkin_ABS/Icon_Listell_Skin01.png",
		"GetPathDesc": "Obtained from the event - Echo of Light.",
		"CharImageID": 0,
		"HeroInformationID": 0
	},
	{
		"ID": 1502,
		"Name": "Eternal Love",
		"SpecifiedHero": 15,
		"CharImageSkinResourceID": 1502,
		"SpecifiedModelSkinResource": [
			{
				"JobConnectionId": 154,
				"SkinResourceId": 1502
			},
			{
				"JobConnectionId": 152,
				"SkinResourceId": 1502
			},
			{
				"JobConnectionId": 155,
				"SkinResourceId": 1502
			},
			{
				"JobConnectionId": 153,
				"SkinResourceId": 1502
			}
		],
		"Desc": "For a thousand years, I've been waiting for you.",
		"Icon": "UI/Icon/HeroSkin_ABS/Icon_Riana_Skin02.png",
		"GetPathDesc": "Obtained from the [Macho Lotto] event.",
		"CharImageID": 0,
		"HeroInformationID": 0
	},
	{
		"ID": 5501,
		"Name": "Fallen Angel",
		"SpecifiedHero": 55,
		"CharImageSkinResourceID": 5501,
		"SpecifiedModelSkinResource": [
			{
				"JobConnectionId": 555,
				"SkinResourceId": 5501
			},
			{
				"JobConnectionId": 552,
				"SkinResourceId": 5501
			},
			{
				"JobConnectionId": 554,
				"SkinResourceId": 55011
			},
			{
				"JobConnectionId": 551,
				"SkinResourceId": 55011
			}
		],
		"Desc": "Being the king of the underworld is better than being a servant of heaven.",
		"Icon": "UI/Icon/HeroSkin_ABS/Icon_Randiovs_Skin01.png",
		"GetPathDesc": "Obtained from the event - Echo of Light.",
		"CharImageID": 0,
		"HeroInformationID": 0
	},
	{
		"ID": 5601,
		"Name": "Lesser Thunder Imp",
		"SpecifiedHero": 56,
		"CharImageSkinResourceID": 5601,
		"SpecifiedModelSkinResource": [
			{
				"JobConnectionId": 564,
				"SkinResourceId": 5601
			},
			{
				"JobConnectionId": 561,
				"SkinResourceId": 5601
			},
			{
				"JobConnectionId": 565,
				"SkinResourceId": 56011
			},
			{
				"JobConnectionId": 562,
				"SkinResourceId": 56011
			}
		],
		"Desc": "Although I'm cute, I'm a natural-born killer!",
		"Icon": "UI/Icon/HeroSkin_ABS/Icon_Rachel_Skin01.png",
		"GetPathDesc": "Obtained from the event - Echo of Light.",
		"CharImageID": 0,
		"HeroInformationID": 0
	},
	{
		"ID": 1403,
		"Name": "Reindeer Raider",
		"SpecifiedHero": 14,
		"CharImageSkinResourceID": 1403,
		"SpecifiedModelSkinResource": [
			{
				"JobConnectionId": 144,
				"SkinResourceId": 1403
			},
			{
				"JobConnectionId": 142,
				"SkinResourceId": 1403
			},
			{
				"JobConnectionId": 145,
				"SkinResourceId": 14031
			},
			{
				"JobConnectionId": 143,
				"SkinResourceId": 14031
			}
		],
		"Desc": "\"Lesser\"?! How dare you! Hmph!",
		"Icon": "UI/Icon/HeroSkin_ABS/Icon_Sherry_Skin03.png",
		"GetPathDesc": "Not available yet!",
		"CharImageID": 0,
		"HeroInformationID": 0
	},
	{
		"ID": 5102,
		"Name": "Holy Night Lady",
		"SpecifiedHero": 51,
		"CharImageSkinResourceID": 5102,
		"SpecifiedModelSkinResource": [
			{
				"JobConnectionId": 515,
				"SkinResourceId": 5102
			},
			{
				"JobConnectionId": 512,
				"SkinResourceId": 5102
			},
			{
				"JobConnectionId": 514,
				"SkinResourceId": 51021
			},
			{
				"JobConnectionId": 511,
				"SkinResourceId": 51021
			}
		],
		"Desc": "Sleep tight, tonight... I will fill your stocking with presents!",
		"Icon": "UI/Icon/HeroSkin_ABS/Icon_SchelFaniel_Skin02.png",
		"GetPathDesc": "Not available yet!",
		"CharImageID": 0,
		"HeroInformationID": 0
	},
	{
		"ID": 5202,
		"Name": "Candy Crusher",
		"SpecifiedHero": 52,
		"CharImageSkinResourceID": 5202,
		"SpecifiedModelSkinResource": [
			{
				"JobConnectionId": 524,
				"SkinResourceId": 5202
			},
			{
				"JobConnectionId": 521,
				"SkinResourceId": 5202
			},
			{
				"JobConnectionId": 525,
				"SkinResourceId": 52021
			},
			{
				"JobConnectionId": 522,
				"SkinResourceId": 52021
			}
		],
		"Desc": "Too much candy will rot your teeth! Stop it!",
		"Icon": "UI/Icon/HeroSkin_ABS/Icon_Angelina_Skin02.png",
		"GetPathDesc": "Not available yet!",
		"CharImageID": 0,
		"HeroInformationID": 0
	},
	{
		"ID": 1203,
		"Name": "Ruby Knight",
		"SpecifiedHero": 12,
		"CharImageSkinResourceID": 1203,
		"SpecifiedModelSkinResource": [
			{
				"JobConnectionId": 124,
				"SkinResourceId": 1203
			},
			{
				"JobConnectionId": 122,
				"SkinResourceId": 1203
			},
			{
				"JobConnectionId": 125,
				"SkinResourceId": 12031
			},
			{
				"JobConnectionId": 123,
				"SkinResourceId": 12031
			}
		],
		"Desc": "\"So, in your heart... you still haven't decided?\"",
		"Icon": "UI/Icon/HeroSkin_ABS/Icon_Elwin_Skin03.png",
		"GetPathDesc": "",
		"CharImageID": 0,
		"HeroInformationID": 0
	},
	{
		"ID": 603,
		"Name": "Azure Knight",
		"SpecifiedHero": 6,
		"CharImageSkinResourceID": 603,
		"SpecifiedModelSkinResource": [
			{
				"JobConnectionId": 65,
				"SkinResourceId": 603
			},
			{
				"JobConnectionId": 62,
				"SkinResourceId": 603
			},
			{
				"JobConnectionId": 64,
				"SkinResourceId": 603
			},
			{
				"JobConnectionId": 61,
				"SkinResourceId": 603
			}
		],
		"Desc": "\"The next battle will decide everything. I'm going all out for victory. No mercy!\"",
		"Icon": "UI/Icon/HeroSkin_ABS/Icon_Leon_Skin03.png",
		"GetPathDesc": "Obtained from the [Big Bro's Gamble] event.",
		"CharImageID": 0,
		"HeroInformationID": 0
	},
	{
		"ID": 1302,
		"Name": "Hyperspace Princess",
		"SpecifiedHero": 13,
		"CharImageSkinResourceID": 1302,
		"SpecifiedModelSkinResource": [
			{
				"JobConnectionId": 134,
				"SkinResourceId": 1302
			},
			{
				"JobConnectionId": 132,
				"SkinResourceId": 1302
			},
			{
				"JobConnectionId": 135,
				"SkinResourceId": 1302
			},
			{
				"JobConnectionId": 131,
				"SkinResourceId": 1302
			}
		],
		"Desc": "\"At least with this, I can finally join the Princess Alliance, Ha ha ha... Hey, don't look at me like that! It's embarrassing.\"",
		"Icon": "UI/Icon/HeroSkin_ABS/Icon_Hein_Skin02.png",
		"GetPathDesc": "Obtained from the event - Echo of Light.",
		"CharImageID": 0,
		"HeroInformationID": 0
	},
	{
		"ID": 7001,
		"Name": "Princess Cecilia",
		"SpecifiedHero": 70,
		"CharImageSkinResourceID": 7001,
		"SpecifiedModelSkinResource": [
			{
				"JobConnectionId": 703,
				"SkinResourceId": 7001
			},
			{
				"JobConnectionId": 701,
				"SkinResourceId": 7001
			},
			{
				"JobConnectionId": 704,
				"SkinResourceId": 7001
			},
			{
				"JobConnectionId": 702,
				"SkinResourceId": 7001
			}
		],
		"Desc": "Like petals scattered in the wind, this outfit will grant its wearer the purity and grace of a maiden's heart.",
		"Icon": "UI/Icon/HeroSkin_ABS/Icon_Joshua01.png",
		"GetPathDesc": "Obtained from the event - Echo of Light.",
		"CharImageID": 0,
		"HeroInformationID": 0
	},
	{
		"ID": 402,
		"Name": "Ancient Beauty",
		"SpecifiedHero": 4,
		"CharImageSkinResourceID": 402,
		"SpecifiedModelSkinResource": [
			{
				"JobConnectionId": 45,
				"SkinResourceId": 402
			},
			{
				"JobConnectionId": 43,
				"SkinResourceId": 402
			},
			{
				"JobConnectionId": 46,
				"SkinResourceId": 402
			},
			{
				"JobConnectionId": 42,
				"SkinResourceId": 402
			}
		],
		"Desc": "Mandarin ducks form couples and butterflies flutter around in pairs, just as I hope that we can always be together.",
		"Icon": "UI/Icon/HeroSkin_ABS/Icon_Aimeeda_Skin02.png",
		"GetPathDesc": "Limited Sale",
		"CharImageID": 0,
		"HeroInformationID": 0
	},
	{
		"ID": 2802,
		"Name": "Frost Shadow",
		"SpecifiedHero": 28,
		"CharImageSkinResourceID": 2802,
		"SpecifiedModelSkinResource": [
			{
				"JobConnectionId": 285,
				"SkinResourceId": 2802
			},
			{
				"JobConnectionId": 282,
				"SkinResourceId": 2802
			},
			{
				"JobConnectionId": 284,
				"SkinResourceId": 2802
			},
			{
				"JobConnectionId": 281,
				"SkinResourceId": 2802
			}
		],
		"Desc": "I've always alone while discovering what this world has to offer. Where can I find someone to share my life with me?",
		"Icon": "UI/Icon/HeroSkin_ABS/Icon_Zalrahda_Skin02.png",
		"GetPathDesc": "Limited Sale",
		"CharImageID": 0,
		"HeroInformationID": 0
	},
	{
		"ID": 502,
		"Name": "Silver Cat",
		"SpecifiedHero": 5,
		"CharImageSkinResourceID": 502,
		"SpecifiedModelSkinResource": [
			{
				"JobConnectionId": 54,
				"SkinResourceId": 502
			},
			{
				"JobConnectionId": 52,
				"SkinResourceId": 502
			},
			{
				"JobConnectionId": 55,
				"SkinResourceId": 502
			},
			{
				"JobConnectionId": 53,
				"SkinResourceId": 502
			}
		],
		"Desc": "A cute and charming villain, this cat-eared thief comes and goes at a moment's notice.",
		"Icon": "UI/Icon/HeroSkin_ABS/Icon_Chris_Skin03.png",
		"GetPathDesc": "Obtained from the [Big Bro's Gamble] event.",
		"CharImageID": 0,
		"HeroInformationID": 0
	},
	{
		"ID": 7201,
		"Name": "Dark Knight",
		"SpecifiedHero": 72,
		"CharImageSkinResourceID": 7201,
		"SpecifiedModelSkinResource": [
			{
				"JobConnectionId": 723,
				"SkinResourceId": 7201
			},
			{
				"JobConnectionId": 721,
				"SkinResourceId": 7201
			},
			{
				"JobConnectionId": 724,
				"SkinResourceId": 7201
			},
			{
				"JobConnectionId": 722,
				"SkinResourceId": 7201
			}
		],
		"Desc": "Those long gone always reappear in the darkness of the soul...",
		"Icon": "UI/Icon/HeroSkin_ABS/Icon_Leonhardt_Skin.png",
		"GetPathDesc": "Obtained from the event - Echo of Light.",
		"CharImageID": 0,
		"HeroInformationID": 0
	},
	{
		"ID": 1002,
		"Name": "Flame Tyrant",
		"SpecifiedHero": 10,
		"CharImageSkinResourceID": 1002,
		"SpecifiedModelSkinResource": [
			{
				"JobConnectionId": 102,
				"SkinResourceId": 10021
			},
			{
				"JobConnectionId": 104,
				"SkinResourceId": 10021
			},
			{
				"JobConnectionId": 103,
				"SkinResourceId": 1002
			},
			{
				"JobConnectionId": 105,
				"SkinResourceId": 1002
			}
		],
		"Desc": "With thunderbolts as his blade and flames as his shield, the unruly and unshackled war god is determined to break through all darkness.",
		"Icon": "UI/Icon/HeroSkin_ABS/Icon_Ledyn_Skin02.png",
		"GetPathDesc": "Obtained from the event - Echo of Light.",
		"CharImageID": 0,
		"HeroInformationID": 0
	},
	{
		"ID": 2502,
		"Name": "Raging Overlord",
		"SpecifiedHero": 25,
		"CharImageSkinResourceID": 2502,
		"SpecifiedModelSkinResource": [
			{
				"JobConnectionId": 254,
				"SkinResourceId": 2502
			},
			{
				"JobConnectionId": 251,
				"SkinResourceId": 2502
			},
			{
				"JobConnectionId": 255,
				"SkinResourceId": 25021
			},
			{
				"JobConnectionId": 252,
				"SkinResourceId": 25021
			}
		],
		"Desc": "In the ocean depths, the king waits, gathering the momentum of the storm with his every move.",
		"Icon": "UI/Icon/HeroSkin_ABS/Icon_Alutemurat_Skin02.png",
		"GetPathDesc": "Obtained from the [Big Bro's Gamble] event.",
		"CharImageID": 0,
		"HeroInformationID": 0
	},
	{
		"ID": 6001,
		"Name": "Prince of Pop",
		"SpecifiedHero": 60,
		"CharImageSkinResourceID": 6001,
		"SpecifiedModelSkinResource": [
			{
				"JobConnectionId": 601,
				"SkinResourceId": 6001
			},
			{
				"JobConnectionId": 602,
				"SkinResourceId": 60011
			},
			{
				"JobConnectionId": 604,
				"SkinResourceId": 6001
			},
			{
				"JobConnectionId": 605,
				"SkinResourceId": 60011
			}
		],
		"Desc": "Come on, it's time to celebrate!",
		"Icon": "UI/Icon/HeroSkin_ABS/Icon_Sigma_Skin01.png",
		"GetPathDesc": "Obtained from the event - Echo of Light.",
		"CharImageID": 0,
		"HeroInformationID": 0
	},
	{
		"ID": 6101,
		"Name": "Electro Idol",
		"SpecifiedHero": 61,
		"CharImageSkinResourceID": 6101,
		"SpecifiedModelSkinResource": [
			{
				"JobConnectionId": 611,
				"SkinResourceId": 6101
			},
			{
				"JobConnectionId": 612,
				"SkinResourceId": 6101
			},
			{
				"JobConnectionId": 614,
				"SkinResourceId": 6101
			},
			{
				"JobConnectionId": 615,
				"SkinResourceId": 6101
			}
		],
		"Desc": "There's only one cutie on this stage, and her name is Lambda!",
		"Icon": "UI/Icon/HeroSkin_ABS/Icon_Lambda_Skin01.png",
		"GetPathDesc": "Obtained from the event - Echo of Light.",
		"CharImageID": 0,
		"HeroInformationID": 0
	},
	{
		"ID": 902,
		"Name": "Lord of Darkness",
		"SpecifiedHero": 9,
		"CharImageSkinResourceID": 902,
		"SpecifiedModelSkinResource": [
			{
				"JobConnectionId": 91,
				"SkinResourceId": 902
			},
			{
				"JobConnectionId": 92,
				"SkinResourceId": 902
			},
			{
				"JobConnectionId": 94,
				"SkinResourceId": 902
			},
			{
				"JobConnectionId": 95,
				"SkinResourceId": 902
			}
		],
		"Desc": "Surrender to your eternal master, feeble soul!",
		"Icon": "UI/Icon/HeroSkin_ABS/Icon_Bozel_Skin02.png",
		"GetPathDesc": "Obtained from the [Big Bro's Gamble] event.",
		"CharImageID": 0,
		"HeroInformationID": 0
	},
	{
		"ID": 3201,
		"Name": "Ancient Wisdom",
		"SpecifiedHero": 32,
		"CharImageSkinResourceID": 3201,
		"SpecifiedModelSkinResource": [
			{
				"JobConnectionId": 321,
				"SkinResourceId": 3201
			},
			{
				"JobConnectionId": 325,
				"SkinResourceId": 3201
			},
			{
				"JobConnectionId": 322,
				"SkinResourceId": 32011
			},
			{
				"JobConnectionId": 324,
				"SkinResourceId": 32011
			}
		],
		"Desc": "Knowledge and power exist under a fog of mystery, while the Eye of Wisdom sees everything.",
		"Icon": "UI/Icon/HeroSkin_ABS/Icon_EmmaLink_Skin01.png",
		"GetPathDesc": "[Apex Arena] Season S1 Limited Skin",
		"CharImageID": 0,
		"HeroInformationID": 0
	},
	{
		"ID": 5701,
		"Name": "Star Commander",
		"SpecifiedHero": 57,
		"CharImageSkinResourceID": 5701,
		"SpecifiedModelSkinResource": [
			{
				"JobConnectionId": 572,
				"SkinResourceId": 57011
			},
			{
				"JobConnectionId": 573,
				"SkinResourceId": 5701
			},
			{
				"JobConnectionId": 574,
				"SkinResourceId": 57011
			},
			{
				"JobConnectionId": 575,
				"SkinResourceId": 5701
			}
		],
		"Desc": "The combined wisdom of all mortals is better than a single genius.",
		"Icon": "UI/Icon/HeroSkin_ABS/Icon_Willer_Skin01.png",
		"GetPathDesc": "Obtained from the event - Echo of Light.",
		"CharImageID": 0,
		"HeroInformationID": 0
	},
	{
		"ID": 1204,
		"Name": "Solitary King",
		"SpecifiedHero": 12,
		"CharImageSkinResourceID": 1204,
		"SpecifiedModelSkinResource": [
			{
				"JobConnectionId": 124,
				"SkinResourceId": 1204
			},
			{
				"JobConnectionId": 122,
				"SkinResourceId": 1204
			},
			{
				"JobConnectionId": 125,
				"SkinResourceId": 12041
			},
			{
				"JobConnectionId": 123,
				"SkinResourceId": 12041
			}
		],
		"Desc": "I will do my best to create a world without war -- that transcends borders and races!",
		"Icon": "UI/Icon/HeroSkin_ABS/Icon_Elwin_Skin04.png",
		"GetPathDesc": "Obtained from the event - Echo of Light.",
		"CharImageID": 0,
		"HeroInformationID": 0
	},
	{
		"ID": 5402,
		"Name": "Nether Nurse",
		"SpecifiedHero": 54,
		"CharImageSkinResourceID": 5402,
		"SpecifiedModelSkinResource": [
			{
				"JobConnectionId": 545,
				"SkinResourceId": 5402
			},
			{
				"JobConnectionId": 542,
				"SkinResourceId": 5402
			},
			{
				"JobConnectionId": 544,
				"SkinResourceId": 54021
			},
			{
				"JobConnectionId": 541,
				"SkinResourceId": 54021
			}
		],
		"Desc": "Come. Don't worry, it won't hurt... Perhaps?",
		"Icon": "UI/Icon/HeroSkin_ABS/Icon_Listell_Skin02.png",
		"GetPathDesc": "Obtained from the [Big Bro's Gamble] event.",
		"CharImageID": 0,
		"HeroInformationID": 0
	},
	{
		"ID": 2001,
		"Name": "Skysoar",
		"SpecifiedHero": 20,
		"CharImageSkinResourceID": 2001,
		"SpecifiedModelSkinResource": [
			{
				"JobConnectionId": 201,
				"SkinResourceId": 2001
			},
			{
				"JobConnectionId": 202,
				"SkinResourceId": 2001
			},
			{
				"JobConnectionId": 204,
				"SkinResourceId": 2001
			},
			{
				"JobConnectionId": 205,
				"SkinResourceId": 2001
			}
		],
		"Desc": "Yeehaaw! This is much more powerful than a Horned Dino! Want to come play together?",
		"Icon": "UI/Icon/HeroSkin_ABS/Icon_Sonia_Skin01.png",
		"GetPathDesc": "",
		"CharImageID": 0,
		"HeroInformationID": 0
	},
	{
		"ID": 5502,
		"Name": "Kajishin",
		"SpecifiedHero": 55,
		"CharImageSkinResourceID": 5502,
		"SpecifiedModelSkinResource": [
			{
				"JobConnectionId": 552,
				"SkinResourceId": 5502
			},
			{
				"JobConnectionId": 555,
				"SkinResourceId": 5502
			},
			{
				"JobConnectionId": 551,
				"SkinResourceId": 55021
			},
			{
				"JobConnectionId": 554,
				"SkinResourceId": 55021
			}
		],
		"Desc": "A hurricane of gold and iron whirls wherever the dragon goes.",
		"Icon": "UI/Icon/HeroSkin_ABS/Icon_Randiovs_Skin02.png",
		"GetPathDesc": "Not available yet!",
		"CharImageID": 0,
		"HeroInformationID": 0
	},
	{
		"ID": 7901,
		"Name": "Sakura Force",
		"SpecifiedHero": 79,
		"CharImageSkinResourceID": 7901,
		"SpecifiedModelSkinResource": [
			{
				"JobConnectionId": 791,
				"SkinResourceId": 7901
			},
			{
				"JobConnectionId": 792,
				"SkinResourceId": 7901
			},
			{
				"JobConnectionId": 793,
				"SkinResourceId": 7901
			},
			{
				"JobConnectionId": 794,
				"SkinResourceId": 7901
			}
		],
		"Desc": "As long as we have love in our hearts, the Teikoku Kagekidan can overcome anything!",
		"Icon": "UI/Icon/HeroSkin_ABS/Icon_Sakura_Skin01.png",
		"GetPathDesc": "Obtained from the event - Echo of Light.",
		"CharImageID": 0,
		"HeroInformationID": 0
	},
	{
		"ID": 8001,
		"Name": "Sakura Blizzard",
		"SpecifiedHero": 80,
		"CharImageSkinResourceID": 8001,
		"SpecifiedModelSkinResource": [
			{
				"JobConnectionId": 801,
				"SkinResourceId": 8001
			},
			{
				"JobConnectionId": 802,
				"SkinResourceId": 8001
			},
			{
				"JobConnectionId": 803,
				"SkinResourceId": 8001
			},
			{
				"JobConnectionId": 804,
				"SkinResourceId": 8001
			}
		],
		"Desc": "Witness the awesome power of the Kanzaki Dust Gust!",
		"Icon": "UI/Icon/HeroSkin_ABS/Icon_Sumire_Skin01.png",
		"GetPathDesc": "Obtained from the event - Echo of Light.",
		"CharImageID": 0,
		"HeroInformationID": 0
	},
	{
		"ID": 8101,
		"Name": "Sakura Sweetheart",
		"SpecifiedHero": 81,
		"CharImageSkinResourceID": 8101,
		"SpecifiedModelSkinResource": [
			{
				"JobConnectionId": 811,
				"SkinResourceId": 8101
			},
			{
				"JobConnectionId": 812,
				"SkinResourceId": 8101
			},
			{
				"JobConnectionId": 813,
				"SkinResourceId": 8101
			},
			{
				"JobConnectionId": 814,
				"SkinResourceId": 8101
			}
		],
		"Desc": "Maybe I can't control my powers so well, but I'll do my best to heal everyone!",
		"Icon": "UI/Icon/HeroSkin_ABS/Icon_Alice_Skin01.png",
		"GetPathDesc": "Limited Sale",
		"CharImageID": 0,
		"HeroInformationID": 0
	},
	{
		"ID": 899,
		"Name": "Endless Love",
		"SpecifiedHero": 8,
		"CharImageSkinResourceID": 899,
		"SpecifiedModelSkinResource": [
			{
				"JobConnectionId": 85,
				"SkinResourceId": 899
			},
			{
				"JobConnectionId": 82,
				"SkinResourceId": 899
			},
			{
				"JobConnectionId": 81,
				"SkinResourceId": 899
			},
			{
				"JobConnectionId": 84,
				"SkinResourceId": 899
			}
		],
		"Desc": "Adorned in white satin, with red roses in hand, I will forever await your return…",
		"Icon": "UI/Icon/HeroSkin_ABS/Icon_Lana_Skin03.png",
		"GetPathDesc": "Limited Sale",
		"CharImageID": 0,
		"HeroInformationID": 0
	},
	{
		"ID": 1499,
		"Name": "Runaway Bride",
		"SpecifiedHero": 14,
		"CharImageSkinResourceID": 1499,
		"SpecifiedModelSkinResource": [
			{
				"JobConnectionId": 144,
				"SkinResourceId": 1499
			},
			{
				"JobConnectionId": 142,
				"SkinResourceId": 1499
			},
			{
				"JobConnectionId": 143,
				"SkinResourceId": 14991
			},
			{
				"JobConnectionId": 145,
				"SkinResourceId": 14991
			}
		],
		"Desc": "Hold me tight, or I'll fly away!",
		"Icon": "UI/Icon/HeroSkin_ABS/Icon_Sherry_Skin04.png",
		"GetPathDesc": "Limited Sale",
		"CharImageID": 0,
		"HeroInformationID": 0
	},
	{
		"ID": 2903,
		"Name": "Drummer Girl",
		"SpecifiedHero": 29,
		"CharImageSkinResourceID": 2903,
		"SpecifiedModelSkinResource": [
			{
				"JobConnectionId": 294,
				"SkinResourceId": 2903
			},
			{
				"JobConnectionId": 292,
				"SkinResourceId": 2903
			},
			{
				"JobConnectionId": 293,
				"SkinResourceId": 2903
			}
		],
		"Desc": "If even the goddess can hear my drums... maybe can you hear my heart?",
		"Icon": "UI/Icon/HeroSkin_ABS/Icon_Tialice_Skin02.png",
		"GetPathDesc": "Limited Sale",
		"CharImageID": 0,
		"HeroInformationID": 0
	},
	{
		"ID": 3303,
		"Name": "Flowing Yukata",
		"SpecifiedHero": 33,
		"CharImageSkinResourceID": 3303,
		"SpecifiedModelSkinResource": [
			{
				"JobConnectionId": 332,
				"SkinResourceId": 3303
			},
			{
				"JobConnectionId": 334,
				"SkinResourceId": 3303
			},
			{
				"JobConnectionId": 331,
				"SkinResourceId": 33031
			},
			{
				"JobConnectionId": 335,
				"SkinResourceId": 33031
			}
		],
		"Desc": "Let's gaze up at this beautiful night sky, together…",
		"Icon": "UI/Icon/HeroSkin_ABS/Icon_Freya_Skin02.png",
		"GetPathDesc": "Limited Sale",
		"CharImageID": 0,
		"HeroInformationID": 0
	}
]