[
	{
		"ID": 1,
		"ItemList": [
			{
				"GoodsType": "GoodsType_ArenaHonour",
				"Id": 0,
				"Count": 300
			}
		]
	},
	{
		"ID": 2,
		"ItemList": [
			{
				"GoodsType": "GoodsType_Crystal",
				"Id": 0,
				"Count": 100
			}
		]
	},
	{
		"ID": 3,
		"ItemList": [
			{
				"GoodsType": "GoodsType_Gold",
				"Id": 0,
				"Count": 300000
			}
		]
	},
	{
		"ID": 4,
		"ItemList": [
			{
				"GoodsType": "GoodsType_BrillianceMithralStone",
				"Id": 0,
				"Count": 100
			}
		]
	},
	{
		"ID": 5,
		"ItemList": [
			{
				"GoodsType": "GoodsType_Item",
				"Id": 4502,
				"Count": 3
			}
		]
	},
	{
		"ID": 6,
		"ItemList": [
			{
				"GoodsType": "GoodsType_Crystal",
				"Id": 0,
				"Count": 300
			}
		]
	},
	{
		"ID": 7,
		"ItemList": [
			{
				"GoodsType": "GoodsType_Crystal",
				"Id": 0,
				"Count": 600
			}
		]
	},
	{
		"ID": 8,
		"ItemList": [
			{
				"GoodsType": "GoodsType_Crystal",
				"Id": 0,
				"Count": 300
			}
		]
	},
	{
		"ID": 9,
		"ItemList": [
			{
				"GoodsType": "GoodsType_Crystal",
				"Id": 0,
				"Count": 600
			}
		]
	},
	{
		"ID": 10,
		"ItemList": [
			{
				"GoodsType": "GoodsType_Item",
				"Id": 4001,
				"Count": 1
			},
			{
				"GoodsType": "GoodsType_Crystal",
				"Id": 0,
				"Count": 30
			}
		]
	},
	{
		"ID": 11,
		"ItemList": [
			{
				"GoodsType": "GoodsType_Item",
				"Id": 4001,
				"Count": 1
			},
			{
				"GoodsType": "GoodsType_Item",
				"Id": 1013,
				"Count": 30
			}
		]
	},
	{
		"ID": 12,
		"ItemList": [
			{
				"GoodsType": "GoodsType_Item",
				"Id": 4001,
				"Count": 1
			},
			{
				"GoodsType": "GoodsType_Crystal",
				"Id": 0,
				"Count": 60
			}
		]
	},
	{
		"ID": 13,
		"ItemList": [
			{
				"GoodsType": "GoodsType_Item",
				"Id": 4001,
				"Count": 1
			},
			{
				"GoodsType": "GoodsType_Crystal",
				"Id": 0,
				"Count": 60
			}
		]
	},
	{
		"ID": 14,
		"ItemList": [
			{
				"GoodsType": "GoodsType_Item",
				"Id": 4001,
				"Count": 1
			},
			{
				"GoodsType": "GoodsType_Crystal",
				"Id": 0,
				"Count": 60
			}
		]
	},
	{
		"ID": 15,
		"ItemList": [
			{
				"GoodsType": "GoodsType_Item",
				"Id": 4001,
				"Count": 1
			},
			{
				"GoodsType": "GoodsType_Item",
				"Id": 1013,
				"Count": 50
			}
		]
	},
	{
		"ID": 16,
		"ItemList": [
			{
				"GoodsType": "GoodsType_Item",
				"Id": 4001,
				"Count": 1
			},
			{
				"GoodsType": "GoodsType_Crystal",
				"Id": 0,
				"Count": 90
			}
		]
	},
	{
		"ID": 17,
		"ItemList": [
			{
				"GoodsType": "GoodsType_Item",
				"Id": 4001,
				"Count": 1
			},
			{
				"GoodsType": "GoodsType_Crystal",
				"Id": 0,
				"Count": 90
			}
		]
	},
	{
		"ID": 18,
		"ItemList": [
			{
				"GoodsType": "GoodsType_Item",
				"Id": 4001,
				"Count": 1
			},
			{
				"GoodsType": "GoodsType_Crystal",
				"Id": 0,
				"Count": 90
			}
		]
	},
	{
		"ID": 19,
		"ItemList": [
			{
				"GoodsType": "GoodsType_Crystal",
				"Id": 0,
				"Count": 50
			}
		]
	},
	{
		"ID": 20,
		"ItemList": [
			{
				"GoodsType": "GoodsType_Crystal",
				"Id": 0,
				"Count": 50
			},
			{
				"GoodsType": "GoodsType_Equipment",
				"Id": 12,
				"Count": 1
			}
		]
	},
	{
		"ID": 21,
		"ItemList": [
			{
				"GoodsType": "GoodsType_Crystal",
				"Id": 0,
				"Count": 50
			},
			{
				"GoodsType": "GoodsType_Equipment",
				"Id": 117,
				"Count": 1
			}
		]
	},
	{
		"ID": 22,
		"ItemList": [
			{
				"GoodsType": "GoodsType_Crystal",
				"Id": 0,
				"Count": 100
			},
			{
				"GoodsType": "GoodsType_Gold",
				"Id": 0,
				"Count": 50000
			},
			{
				"GoodsType": "GoodsType_Equipment",
				"Id": 302,
				"Count": 1
			}
		]
	},
	{
		"ID": 23,
		"ItemList": [
			{
				"GoodsType": "GoodsType_Crystal",
				"Id": 0,
				"Count": 100
			},
			{
				"GoodsType": "GoodsType_Item",
				"Id": 3500,
				"Count": 1
			},
			{
				"GoodsType": "GoodsType_Item",
				"Id": 3501,
				"Count": 1
			}
		]
	},
	{
		"ID": 24,
		"ItemList": [
			{
				"GoodsType": "GoodsType_Crystal",
				"Id": 0,
				"Count": 150
			},
			{
				"GoodsType": "GoodsType_Equipment",
				"Id": 58,
				"Count": 1
			}
		]
	},
	{
		"ID": 25,
		"ItemList": [
			{
				"GoodsType": "GoodsType_Crystal",
				"Id": 0,
				"Count": 150
			},
			{
				"GoodsType": "GoodsType_Equipment",
				"Id": 14,
				"Count": 1
			},
			{
				"GoodsType": "GoodsType_Equipment",
				"Id": 94,
				"Count": 1
			}
		]
	},
	{
		"ID": 26,
		"ItemList": [
			{
				"GoodsType": "GoodsType_Crystal",
				"Id": 0,
				"Count": 200
			},
			{
				"GoodsType": "GoodsType_Equipment",
				"Id": 114,
				"Count": 1
			},
			{
				"GoodsType": "GoodsType_Item",
				"Id": 3502,
				"Count": 1
			}
		]
	},
	{
		"ID": 27,
		"ItemList": [
			{
				"GoodsType": "GoodsType_Item",
				"Id": 4001,
				"Count": 1
			},
			{
				"GoodsType": "GoodsType_Gold",
				"Id": 0,
				"Count": 10000
			}
		]
	},
	{
		"ID": 28,
		"ItemList": [
			{
				"GoodsType": "GoodsType_Item",
				"Id": 4001,
				"Count": 1
			},
			{
				"GoodsType": "GoodsType_Equipment",
				"Id": 303,
				"Count": 3
			}
		]
	},
	{
		"ID": 29,
		"ItemList": [
			{
				"GoodsType": "GoodsType_Item",
				"Id": 4001,
				"Count": 1
			},
			{
				"GoodsType": "GoodsType_Crystal",
				"Id": 0,
				"Count": 100
			}
		]
	},
	{
		"ID": 30,
		"ItemList": [
			{
				"GoodsType": "GoodsType_Item",
				"Id": 4001,
				"Count": 1
			},
			{
				"GoodsType": "GoodsType_Equipment",
				"Id": 117,
				"Count": 1
			}
		]
	},
	{
		"ID": 31,
		"ItemList": [
			{
				"GoodsType": "GoodsType_Item",
				"Id": 4001,
				"Count": 1
			},
			{
				"GoodsType": "GoodsType_Equipment",
				"Id": 307,
				"Count": 1
			}
		]
	},
	{
		"ID": 32,
		"ItemList": [
			{
				"GoodsType": "GoodsType_Item",
				"Id": 4001,
				"Count": 1
			},
			{
				"GoodsType": "GoodsType_Crystal",
				"Id": 0,
				"Count": 150
			}
		]
	},
	{
		"ID": 33,
		"ItemList": [
			{
				"GoodsType": "GoodsType_Item",
				"Id": 4001,
				"Count": 1
			},
			{
				"GoodsType": "GoodsType_Equipment",
				"Id": 80,
				"Count": 1
			}
		]
	},
	{
		"ID": 34,
		"ItemList": [
			{
				"GoodsType": "GoodsType_Item",
				"Id": 4001,
				"Count": 1
			},
			{
				"GoodsType": "GoodsType_Crystal",
				"Id": 0,
				"Count": 200
			}
		]
	},
	{
		"ID": 35,
		"ItemList": [
			{
				"GoodsType": "GoodsType_Crystal",
				"Id": 0,
				"Count": 50
			}
		]
	},
	{
		"ID": 36,
		"ItemList": [
			{
				"GoodsType": "GoodsType_Crystal",
				"Id": 0,
				"Count": 50
			},
			{
				"GoodsType": "GoodsType_Equipment",
				"Id": 12,
				"Count": 1
			}
		]
	},
	{
		"ID": 37,
		"ItemList": [
			{
				"GoodsType": "GoodsType_Crystal",
				"Id": 0,
				"Count": 50
			},
			{
				"GoodsType": "GoodsType_Equipment",
				"Id": 58,
				"Count": 1
			}
		]
	},
	{
		"ID": 38,
		"ItemList": [
			{
				"GoodsType": "GoodsType_Crystal",
				"Id": 0,
				"Count": 100
			},
			{
				"GoodsType": "GoodsType_Equipment",
				"Id": 85,
				"Count": 1
			}
		]
	},
	{
		"ID": 39,
		"ItemList": [
			{
				"GoodsType": "GoodsType_Crystal",
				"Id": 0,
				"Count": 100
			},
			{
				"GoodsType": "GoodsType_Item",
				"Id": 3501,
				"Count": 1
			}
		]
	},
	{
		"ID": 40,
		"ItemList": [
			{
				"GoodsType": "GoodsType_Crystal",
				"Id": 0,
				"Count": 200
			},
			{
				"GoodsType": "GoodsType_Item",
				"Id": 3009,
				"Count": 1
			}
		]
	},
	{
		"ID": 41,
		"ItemList": [
			{
				"GoodsType": "GoodsType_Crystal",
				"Id": 0,
				"Count": 200
			},
			{
				"GoodsType": "GoodsType_Equipment",
				"Id": 13,
				"Count": 1
			}
		]
	},
	{
		"ID": 42,
		"ItemList": [
			{
				"GoodsType": "GoodsType_Crystal",
				"Id": 0,
				"Count": 300
			},
			{
				"GoodsType": "GoodsType_Equipment",
				"Id": 59,
				"Count": 1
			}
		]
	},
	{
		"ID": 43,
		"ItemList": [
			{
				"GoodsType": "GoodsType_Crystal",
				"Id": 0,
				"Count": 300
			},
			{
				"GoodsType": "GoodsType_Equipment",
				"Id": 99,
				"Count": 1
			}
		]
	},
	{
		"ID": 44,
		"ItemList": [
			{
				"GoodsType": "GoodsType_Gold",
				"Id": 0,
				"Count": 80000
			}
		]
	},
	{
		"ID": 45,
		"ItemList": [
			{
				"GoodsType": "GoodsType_Item",
				"Id": 4012,
				"Count": 1
			}
		]
	},
	{
		"ID": 46,
		"ItemList": [
			{
				"GoodsType": "GoodsType_Item",
				"Id": 4001,
				"Count": 2
			}
		]
	},
	{
		"ID": 47,
		"ItemList": [
			{
				"GoodsType": "GoodsType_Item",
				"Id": 3009,
				"Count": 1
			}
		]
	},
	{
		"ID": 48,
		"ItemList": [
			{
				"GoodsType": "GoodsType_HeadFrame",
				"Id": 4,
				"Count": 1
			},
			{
				"GoodsType": "GoodsType_Item",
				"Id": 4013,
				"Count": 1
			}
		]
	},
	{
		"ID": 49,
		"ItemList": [
			{
				"GoodsType": "GoodsType_HeroSkin",
				"Id": 602,
				"Count": 1
			},
			{
				"GoodsType": "GoodsType_HeroSkin",
				"Id": 1202,
				"Count": 1
			}
		]
	},
	{
		"ID": 50,
		"ItemList": [
			{
				"GoodsType": "GoodsType_Item",
				"Id": 4001,
				"Count": 2
			},
			{
				"GoodsType": "GoodsType_SoldierSkin",
				"Id": 20001,
				"Count": 1
			}
		]
	},
	{
		"ID": 51,
		"ItemList": [
			{
				"GoodsType": "GoodsType_Item",
				"Id": 4001,
				"Count": 2
			},
			{
				"GoodsType": "GoodsType_Item",
				"Id": 4025,
				"Count": 1
			}
		]
	},
	{
		"ID": 52,
		"ItemList": [
			{
				"GoodsType": "GoodsType_Item",
				"Id": 4001,
				"Count": 2
			},
			{
				"GoodsType": "GoodsType_Gold",
				"Id": 0,
				"Count": 50000
			}
		]
	},
	{
		"ID": 53,
		"ItemList": [
			{
				"GoodsType": "GoodsType_Item",
				"Id": 4001,
				"Count": 1
			}
		]
	},
	{
		"ID": 54,
		"ItemList": [
			{
				"GoodsType": "GoodsType_Item",
				"Id": 4001,
				"Count": 1
			}
		]
	},
	{
		"ID": 55,
		"ItemList": [
			{
				"GoodsType": "GoodsType_Item",
				"Id": 4001,
				"Count": 1
			}
		]
	},
	{
		"ID": 56,
		"ItemList": [
			{
				"GoodsType": "GoodsType_Item",
				"Id": 4001,
				"Count": 1
			}
		]
	},
	{
		"ID": 57,
		"ItemList": [
			{
				"GoodsType": "GoodsType_Gold",
				"Id": 0,
				"Count": 80000
			}
		]
	},
	{
		"ID": 58,
		"ItemList": [
			{
				"GoodsType": "GoodsType_Item",
				"Id": 4012,
				"Count": 1
			}
		]
	},
	{
		"ID": 59,
		"ItemList": [
			{
				"GoodsType": "GoodsType_Item",
				"Id": 4001,
				"Count": 2
			}
		]
	},
	{
		"ID": 60,
		"ItemList": [
			{
				"GoodsType": "GoodsType_Item",
				"Id": 3009,
				"Count": 1
			}
		]
	},
	{
		"ID": 61,
		"ItemList": [
			{
				"GoodsType": "GoodsType_HeadFrame",
				"Id": 13,
				"Count": 1
			},
			{
				"GoodsType": "GoodsType_Item",
				"Id": 4013,
				"Count": 1
			}
		]
	},
	{
		"ID": 62,
		"ItemList": [
			{
				"GoodsType": "GoodsType_HeroSkin",
				"Id": 5101,
				"Count": 1
			},
			{
				"GoodsType": "GoodsType_HeroSkin",
				"Id": 5201,
				"Count": 1
			}
		]
	},
	{
		"ID": 63,
		"ItemList": [
			{
				"GoodsType": "GoodsType_Gold",
				"Id": 0,
				"Count": 80000
			}
		]
	},
	{
		"ID": 64,
		"ItemList": [
			{
				"GoodsType": "GoodsType_Item",
				"Id": 4012,
				"Count": 1
			}
		]
	},
	{
		"ID": 65,
		"ItemList": [
			{
				"GoodsType": "GoodsType_Item",
				"Id": 4001,
				"Count": 2
			}
		]
	},
	{
		"ID": 66,
		"ItemList": [
			{
				"GoodsType": "GoodsType_Item",
				"Id": 3009,
				"Count": 1
			}
		]
	},
	{
		"ID": 67,
		"ItemList": [
			{
				"GoodsType": "GoodsType_HeadFrame",
				"Id": 14,
				"Count": 1
			},
			{
				"GoodsType": "GoodsType_Item",
				"Id": 4013,
				"Count": 1
			}
		]
	},
	{
		"ID": 68,
		"ItemList": [
			{
				"GoodsType": "GoodsType_Item",
				"Id": 4513,
				"Count": 1
			}
		]
	},
	{
		"ID": 69,
		"ItemList": [
			{
				"GoodsType": "GoodsType_Gold",
				"Id": 0,
				"Count": 80000
			}
		]
	},
	{
		"ID": 70,
		"ItemList": [
			{
				"GoodsType": "GoodsType_Item",
				"Id": 4012,
				"Count": 1
			}
		]
	},
	{
		"ID": 71,
		"ItemList": [
			{
				"GoodsType": "GoodsType_Item",
				"Id": 4001,
				"Count": 2
			}
		]
	},
	{
		"ID": 72,
		"ItemList": [
			{
				"GoodsType": "GoodsType_Item",
				"Id": 3009,
				"Count": 1
			}
		]
	},
	{
		"ID": 73,
		"ItemList": [
			{
				"GoodsType": "GoodsType_HeadFrame",
				"Id": 15,
				"Count": 1
			},
			{
				"GoodsType": "GoodsType_Item",
				"Id": 4013,
				"Count": 1
			}
		]
	},
	{
		"ID": 74,
		"ItemList": [
			{
				"GoodsType": "GoodsType_Item",
				"Id": 4514,
				"Count": 1
			}
		]
	},
	{
		"ID": 75,
		"ItemList": [
			{
				"GoodsType": "GoodsType_Gold",
				"Id": 0,
				"Count": 80000
			}
		]
	},
	{
		"ID": 76,
		"ItemList": [
			{
				"GoodsType": "GoodsType_Item",
				"Id": 4012,
				"Count": 1
			}
		]
	},
	{
		"ID": 77,
		"ItemList": [
			{
				"GoodsType": "GoodsType_Item",
				"Id": 4001,
				"Count": 2
			}
		]
	},
	{
		"ID": 78,
		"ItemList": [
			{
				"GoodsType": "GoodsType_Item",
				"Id": 3009,
				"Count": 1
			}
		]
	},
	{
		"ID": 79,
		"ItemList": [
			{
				"GoodsType": "GoodsType_HeadFrame",
				"Id": 18,
				"Count": 1
			},
			{
				"GoodsType": "GoodsType_Item",
				"Id": 4013,
				"Count": 1
			}
		]
	},
	{
		"ID": 80,
		"ItemList": [
			{
				"GoodsType": "GoodsType_Item",
				"Id": 4519,
				"Count": 1
			}
		]
	},
	{
		"ID": 81,
		"ItemList": [
			{
				"GoodsType": "GoodsType_Gold",
				"Id": 0,
				"Count": 80000
			}
		]
	},
	{
		"ID": 82,
		"ItemList": [
			{
				"GoodsType": "GoodsType_Item",
				"Id": 4012,
				"Count": 1
			}
		]
	},
	{
		"ID": 83,
		"ItemList": [
			{
				"GoodsType": "GoodsType_Item",
				"Id": 4001,
				"Count": 2
			}
		]
	},
	{
		"ID": 84,
		"ItemList": [
			{
				"GoodsType": "GoodsType_Item",
				"Id": 3009,
				"Count": 1
			}
		]
	},
	{
		"ID": 85,
		"ItemList": [
			{
				"GoodsType": "GoodsType_HeadFrame",
				"Id": 26,
				"Count": 1
			},
			{
				"GoodsType": "GoodsType_Item",
				"Id": 4013,
				"Count": 1
			}
		]
	},
	{
		"ID": 86,
		"ItemList": [
			{
				"GoodsType": "GoodsType_Item",
				"Id": 4520,
				"Count": 1
			}
		]
	},
	{
		"ID": 87,
		"ItemList": [
			{
				"GoodsType": "GoodsType_Gold",
				"Id": 0,
				"Count": 80000
			}
		]
	},
	{
		"ID": 88,
		"ItemList": [
			{
				"GoodsType": "GoodsType_Item",
				"Id": 4012,
				"Count": 1
			}
		]
	},
	{
		"ID": 89,
		"ItemList": [
			{
				"GoodsType": "GoodsType_Item",
				"Id": 4001,
				"Count": 2
			}
		]
	},
	{
		"ID": 90,
		"ItemList": [
			{
				"GoodsType": "GoodsType_Item",
				"Id": 3009,
				"Count": 1
			}
		]
	},
	{
		"ID": 91,
		"ItemList": [
			{
				"GoodsType": "GoodsType_HeadFrame",
				"Id": 30,
				"Count": 1
			},
			{
				"GoodsType": "GoodsType_Item",
				"Id": 4013,
				"Count": 1
			}
		]
	},
	{
		"ID": 92,
		"ItemList": [
			{
				"GoodsType": "GoodsType_Item",
				"Id": 4522,
				"Count": 1
			}
		]
	},
	{
		"ID": 93,
		"ItemList": [
			{
				"GoodsType": "GoodsType_Item",
				"Id": 3203,
				"Count": 4
			}
		]
	},
	{
		"ID": 94,
		"ItemList": [
			{
				"GoodsType": "GoodsType_Item",
				"Id": 4502,
				"Count": 1
			}
		]
	},
	{
		"ID": 95,
		"ItemList": [
			{
				"GoodsType": "GoodsType_Equipment",
				"Id": 308,
				"Count": 1
			}
		]
	},
	{
		"ID": 96,
		"ItemList": [
			{
				"GoodsType": "GoodsType_Item",
				"Id": 4001,
				"Count": 1
			}
		]
	},
	{
		"ID": 97,
		"ItemList": [
			{
				"GoodsType": "GoodsType_Gold",
				"Id": 0,
				"Count": 80000
			}
		]
	},
	{
		"ID": 98,
		"ItemList": [
			{
				"GoodsType": "GoodsType_Equipment",
				"Id": 304,
				"Count": 2
			}
		]
	},
	{
		"ID": 99,
		"ItemList": [
			{
				"GoodsType": "GoodsType_Item",
				"Id": 3510,
				"Count": 20
			}
		]
	},
	{
		"ID": 100,
		"ItemList": [
			{
				"GoodsType": "GoodsType_Item",
				"Id": 3510,
				"Count": 20
			}
		]
	},
	{
		"ID": 101,
		"ItemList": [
			{
				"GoodsType": "GoodsType_Item",
				"Id": 3510,
				"Count": 45
			}
		]
	},
	{
		"ID": 102,
		"ItemList": [
			{
				"GoodsType": "GoodsType_Item",
				"Id": 3510,
				"Count": 12
			}
		]
	},
	{
		"ID": 103,
		"ItemList": [
			{
				"GoodsType": "GoodsType_Item",
				"Id": 3510,
				"Count": 8
			}
		]
	},
	{
		"ID": 104,
		"ItemList": [
			{
				"GoodsType": "GoodsType_Item",
				"Id": 3510,
				"Count": 10
			}
		]
	},
	{
		"ID": 105,
		"ItemList": [
			{
				"GoodsType": "GoodsType_Item",
				"Id": 1012,
				"Count": 50
			},
			{
				"GoodsType": "GoodsType_Item",
				"Id": 3509,
				"Count": 1
			}
		]
	},
	{
		"ID": 106,
		"ItemList": [
			{
				"GoodsType": "GoodsType_Item",
				"Id": 1015,
				"Count": 50
			},
			{
				"GoodsType": "GoodsType_Item",
				"Id": 3509,
				"Count": 1
			}
		]
	},
	{
		"ID": 107,
		"ItemList": [
			{
				"GoodsType": "GoodsType_Item",
				"Id": 1006,
				"Count": 50
			},
			{
				"GoodsType": "GoodsType_Item",
				"Id": 3509,
				"Count": 1
			}
		]
	},
	{
		"ID": 108,
		"ItemList": [
			{
				"GoodsType": "GoodsType_Item",
				"Id": 1008,
				"Count": 50
			},
			{
				"GoodsType": "GoodsType_Item",
				"Id": 3509,
				"Count": 1
			}
		]
	},
	{
		"ID": 109,
		"ItemList": [
			{
				"GoodsType": "GoodsType_Item",
				"Id": 1055,
				"Count": 50
			},
			{
				"GoodsType": "GoodsType_Item",
				"Id": 3509,
				"Count": 1
			}
		]
	},
	{
		"ID": 110,
		"ItemList": [
			{
				"GoodsType": "GoodsType_Item",
				"Id": 1054,
				"Count": 50
			},
			{
				"GoodsType": "GoodsType_Item",
				"Id": 3509,
				"Count": 1
			}
		]
	},
	{
		"ID": 111,
		"ItemList": [
			{
				"GoodsType": "GoodsType_Item",
				"Id": 3509,
				"Count": 1
			}
		]
	},
	{
		"ID": 112,
		"ItemList": [
			{
				"GoodsType": "GoodsType_Item",
				"Id": 3509,
				"Count": 1
			}
		]
	},
	{
		"ID": 113,
		"ItemList": [
			{
				"GoodsType": "GoodsType_Item",
				"Id": 3509,
				"Count": 1
			}
		]
	},
	{
		"ID": 114,
		"ItemList": [
			{
				"GoodsType": "GoodsType_Item",
				"Id": 1015,
				"Count": 60
			}
		]
	},
	{
		"ID": 115,
		"ItemList": [
			{
				"GoodsType": "GoodsType_Item",
				"Id": 1012,
				"Count": 60
			}
		]
	},
	{
		"ID": 116,
		"ItemList": [
			{
				"GoodsType": "GoodsType_Item",
				"Id": 1008,
				"Count": 60
			}
		]
	},
	{
		"ID": 117,
		"ItemList": [
			{
				"GoodsType": "GoodsType_Item",
				"Id": 1006,
				"Count": 60
			}
		]
	},
	{
		"ID": 118,
		"ItemList": [
			{
				"GoodsType": "GoodsType_Item",
				"Id": 1054,
				"Count": 60
			}
		]
	},
	{
		"ID": 119,
		"ItemList": [
			{
				"GoodsType": "GoodsType_Item",
				"Id": 1055,
				"Count": 60
			}
		]
	},
	{
		"ID": 120,
		"ItemList": [
			{
				"GoodsType": "GoodsType_MemoryEssence",
				"Id": 0,
				"Count": 300
			}
		]
	},
	{
		"ID": 121,
		"ItemList": [
			{
				"GoodsType": "GoodsType_BrillianceMithralStone",
				"Id": 0,
				"Count": 30
			}
		]
	},
	{
		"ID": 122,
		"ItemList": [
			{
				"GoodsType": "GoodsType_Gold",
				"Id": 0,
				"Count": 300000
			}
		]
	},
	{
		"ID": 123,
		"ItemList": [
			{
				"GoodsType": "GoodsType_Gold",
				"Id": 0,
				"Count": 80000
			}
		]
	},
	{
		"ID": 124,
		"ItemList": [
			{
				"GoodsType": "GoodsType_Item",
				"Id": 4012,
				"Count": 1
			}
		]
	},
	{
		"ID": 125,
		"ItemList": [
			{
				"GoodsType": "GoodsType_Item",
				"Id": 4001,
				"Count": 2
			}
		]
	},
	{
		"ID": 126,
		"ItemList": [
			{
				"GoodsType": "GoodsType_Item",
				"Id": 3009,
				"Count": 1
			}
		]
	},
	{
		"ID": 127,
		"ItemList": [
			{
				"GoodsType": "GoodsType_HeadFrame",
				"Id": 33,
				"Count": 1
			},
			{
				"GoodsType": "GoodsType_Item",
				"Id": 4013,
				"Count": 1
			}
		]
	},
	{
		"ID": 128,
		"ItemList": [
			{
				"GoodsType": "GoodsType_Item",
				"Id": 4524,
				"Count": 1
			}
		]
	},
	{
		"ID": 129,
		"ItemList": [
			{
				"GoodsType": "GoodsType_Item",
				"Id": 3203,
				"Count": 2
			}
		]
	},
	{
		"ID": 130,
		"ItemList": [
			{
				"GoodsType": "GoodsType_Item",
				"Id": 3009,
				"Count": 1
			}
		]
	},
	{
		"ID": 131,
		"ItemList": [
			{
				"GoodsType": "GoodsType_Item",
				"Id": 4001,
				"Count": 1
			}
		]
	},
	{
		"ID": 132,
		"ItemList": [
			{
				"GoodsType": "GoodsType_Gold",
				"Id": 0,
				"Count": 80000
			}
		]
	},
	{
		"ID": 133,
		"ItemList": [
			{
				"GoodsType": "GoodsType_Equipment",
				"Id": 304,
				"Count": 2
			}
		]
	},
	{
		"ID": 134,
		"ItemList": [
			{
				"GoodsType": "GoodsType_Item",
				"Id": 3523,
				"Count": 6
			}
		]
	},
	{
		"ID": 135,
		"ItemList": [
			{
				"GoodsType": "GoodsType_Item",
				"Id": 3523,
				"Count": 20
			}
		]
	},
	{
		"ID": 136,
		"ItemList": [
			{
				"GoodsType": "GoodsType_Item",
				"Id": 3523,
				"Count": 4
			}
		]
	},
	{
		"ID": 137,
		"ItemList": [
			{
				"GoodsType": "GoodsType_Item",
				"Id": 3523,
				"Count": 2
			}
		]
	},
	{
		"ID": 138,
		"ItemList": [
			{
				"GoodsType": "GoodsType_Item",
				"Id": 3523,
				"Count": 1
			}
		]
	},
	{
		"ID": 139,
		"ItemList": [
			{
				"GoodsType": "GoodsType_Gold",
				"Id": 0,
				"Count": 80000
			}
		]
	},
	{
		"ID": 140,
		"ItemList": [
			{
				"GoodsType": "GoodsType_Item",
				"Id": 4012,
				"Count": 1
			}
		]
	},
	{
		"ID": 141,
		"ItemList": [
			{
				"GoodsType": "GoodsType_Item",
				"Id": 4001,
				"Count": 2
			}
		]
	},
	{
		"ID": 142,
		"ItemList": [
			{
				"GoodsType": "GoodsType_Item",
				"Id": 3009,
				"Count": 1
			}
		]
	},
	{
		"ID": 143,
		"ItemList": [
			{
				"GoodsType": "GoodsType_HeadFrame",
				"Id": 37,
				"Count": 1
			},
			{
				"GoodsType": "GoodsType_Item",
				"Id": 4013,
				"Count": 1
			}
		]
	},
	{
		"ID": 144,
		"ItemList": [
			{
				"GoodsType": "GoodsType_Item",
				"Id": 4526,
				"Count": 1
			}
		]
	},
	{
		"ID": 145,
		"ItemList": [
			{
				"GoodsType": "GoodsType_Gold",
				"Id": 0,
				"Count": 80000
			}
		]
	},
	{
		"ID": 146,
		"ItemList": [
			{
				"GoodsType": "GoodsType_Item",
				"Id": 4012,
				"Count": 1
			}
		]
	},
	{
		"ID": 147,
		"ItemList": [
			{
				"GoodsType": "GoodsType_Item",
				"Id": 4001,
				"Count": 2
			}
		]
	},
	{
		"ID": 148,
		"ItemList": [
			{
				"GoodsType": "GoodsType_Item",
				"Id": 3009,
				"Count": 1
			}
		]
	},
	{
		"ID": 149,
		"ItemList": [
			{
				"GoodsType": "GoodsType_HeadFrame",
				"Id": 38,
				"Count": 1
			},
			{
				"GoodsType": "GoodsType_Item",
				"Id": 4013,
				"Count": 1
			}
		]
	},
	{
		"ID": 150,
		"ItemList": [
			{
				"GoodsType": "GoodsType_Item",
				"Id": 4530,
				"Count": 1
			}
		]
	},
	{
		"ID": 187,
		"ItemList": [
			{
				"GoodsType": "GoodsType_Gold",
				"Id": 0,
				"Count": 80000
			}
		]
	},
	{
		"ID": 188,
		"ItemList": [
			{
				"GoodsType": "GoodsType_Item",
				"Id": 4012,
				"Count": 1
			}
		]
	},
	{
		"ID": 189,
		"ItemList": [
			{
				"GoodsType": "GoodsType_Item",
				"Id": 4001,
				"Count": 2
			}
		]
	},
	{
		"ID": 190,
		"ItemList": [
			{
				"GoodsType": "GoodsType_Item",
				"Id": 3009,
				"Count": 1
			}
		]
	},
	{
		"ID": 191,
		"ItemList": [
			{
				"GoodsType": "GoodsType_HeadFrame",
				"Id": 30,
				"Count": 1
			},
			{
				"GoodsType": "GoodsType_Item",
				"Id": 4013,
				"Count": 1
			}
		]
	},
	{
		"ID": 192,
		"ItemList": [
			{
				"GoodsType": "GoodsType_Item",
				"Id": 4522,
				"Count": 1
			}
		]
	},
	{
		"ID": 500,
		"ItemList": [
			{
				"GoodsType": "GoodsType_Item",
				"Id": 4001,
				"Count": 2
			},
			{
				"GoodsType": "GoodsType_SoldierSkin",
				"Id": 1,
				"Count": 1
			}
		]
	},
	{
		"ID": 501,
		"ItemList": [
			{
				"GoodsType": "GoodsType_Item",
				"Id": 4001,
				"Count": 2
			},
			{
				"GoodsType": "GoodsType_Item",
				"Id": 4025,
				"Count": 1
			}
		]
	},
	{
		"ID": 502,
		"ItemList": [
			{
				"GoodsType": "GoodsType_Item",
				"Id": 4001,
				"Count": 2
			},
			{
				"GoodsType": "GoodsType_Gold",
				"Id": 0,
				"Count": 50000
			}
		]
	},
	{
		"ID": 503,
		"ItemList": [
			{
				"GoodsType": "GoodsType_Item",
				"Id": 4001,
				"Count": 1
			}
		]
	},
	{
		"ID": 504,
		"ItemList": [
			{
				"GoodsType": "GoodsType_Item",
				"Id": 4001,
				"Count": 1
			}
		]
	},
	{
		"ID": 505,
		"ItemList": [
			{
				"GoodsType": "GoodsType_Item",
				"Id": 4001,
				"Count": 1
			}
		]
	},
	{
		"ID": 506,
		"ItemList": [
			{
				"GoodsType": "GoodsType_Item",
				"Id": 4001,
				"Count": 1
			}
		]
	},
	{
		"ID": 835,
		"ItemList": [
			{
				"GoodsType": "GoodsType_Crystal",
				"Id": 0,
				"Count": 200
			}
		]
	},
	{
		"ID": 836,
		"ItemList": [
			{
				"GoodsType": "GoodsType_Crystal",
				"Id": 0,
				"Count": 300
			}
		]
	},
	{
		"ID": 837,
		"ItemList": [
			{
				"GoodsType": "GoodsType_Crystal",
				"Id": 0,
				"Count": 400
			}
		]
	},
	{
		"ID": 838,
		"ItemList": [
			{
				"GoodsType": "GoodsType_Crystal",
				"Id": 0,
				"Count": 500
			}
		]
	},
	{
		"ID": 839,
		"ItemList": [
			{
				"GoodsType": "GoodsType_Crystal",
				"Id": 0,
				"Count": 600
			}
		]
	},
	{
		"ID": 840,
		"ItemList": [
			{
				"GoodsType": "GoodsType_Crystal",
				"Id": 0,
				"Count": 700
			}
		]
	},
	{
		"ID": 841,
		"ItemList": [
			{
				"GoodsType": "GoodsType_Crystal",
				"Id": 0,
				"Count": 800
			}
		]
	},
	{
		"ID": 893,
		"ItemList": [
			{
				"GoodsType": "GoodsType_Item",
				"Id": 3203,
				"Count": 2
			}
		]
	},
	{
		"ID": 894,
		"ItemList": [
			{
				"GoodsType": "GoodsType_Item",
				"Id": 4502,
				"Count": 1
			}
		]
	},
	{
		"ID": 895,
		"ItemList": [
			{
				"GoodsType": "GoodsType_Equipment",
				"Id": 308,
				"Count": 1
			}
		]
	},
	{
		"ID": 896,
		"ItemList": [
			{
				"GoodsType": "GoodsType_Item",
				"Id": 4001,
				"Count": 1
			}
		]
	},
	{
		"ID": 897,
		"ItemList": [
			{
				"GoodsType": "GoodsType_Gold",
				"Id": 0,
				"Count": 80000
			}
		]
	},
	{
		"ID": 898,
		"ItemList": [
			{
				"GoodsType": "GoodsType_Equipment",
				"Id": 304,
				"Count": 2
			}
		]
	},
	{
		"ID": 899,
		"ItemList": [
			{
				"GoodsType": "GoodsType_Item",
				"Id": 60016,
				"Count": 1
			}
		]
	},
	{
		"ID": 900,
		"ItemList": [
			{
				"GoodsType": "GoodsType_Item",
				"Id": 60015,
				"Count": 20
			}
		]
	},
	{
		"ID": 901,
		"ItemList": [
			{
				"GoodsType": "GoodsType_Item",
				"Id": 60015,
				"Count": 30
			}
		]
	},
	{
		"ID": 902,
		"ItemList": [
			{
				"GoodsType": "GoodsType_Item",
				"Id": 60015,
				"Count": 60
			}
		]
	},
	{
		"ID": 903,
		"ItemList": [
			{
				"GoodsType": "GoodsType_Item",
				"Id": 60015,
				"Count": 15
			}
		]
	},
	{
		"ID": 904,
		"ItemList": [
			{
				"GoodsType": "GoodsType_Item",
				"Id": 60015,
				"Count": 15
			}
		]
	},
	{
		"ID": 905,
		"ItemList": [
			{
				"GoodsType": "GoodsType_Item",
				"Id": 60015,
				"Count": 15
			}
		]
	},
	{
		"ID": 906,
		"ItemList": [
			{
				"GoodsType": "GoodsType_Item",
				"Id": 60015,
				"Count": 3
			}
		]
	}
]