[
	{
		"ID": 1,
		"Name": "Fire Dragon - Fafnir",
		"Desc": "Fire Dragon - Fafnir",
		"TeamName": "Goddess Trial",
		"LevelList": [
			1,
			2,
			3,
			4,
			5,
			6,
			7,
			8,
			9,
			10,
			100
		],
		"StartTimeList": [
			1,
			4
		],
		"Model": "Spine/Boss/Fafnir_ABS/Fafnir_Prefab.prefab",
		"Fx": "UI/Thearchy_ABS/FX/FX_UI_ThearchyFafnir.prefab",
		"UIModelScale": 135,
		"UIModelOffsetX": 0,
		"UIModelOffsetY": 0
	},
	{
		"ID": 2,
		"Name": "Ice Dragon Asante",
		"Desc": "Ice Dragon Asante",
		"TeamName": "Goddess Trial",
		"LevelList": [
			11,
			12,
			13,
			14,
			15,
			16,
			17,
			18,
			19,
			20,
			200
		],
		"StartTimeList": [
			2,
			5
		],
		"ArmysID": [
			6,
			7,
			8,
			9
		],
		"Model": "Spine/Boss/IceDragon_ABS/IceDragon_prefab.prefab",
		"Fx": "UI/Thearchy_ABS/FX/FX_UI_ThearchyIceDragon.prefab",
		"UIModelScale": 135,
		"UIModelOffsetX": 0,
		"UIModelOffsetY": 0
	},
	{
		"ID": 3,
		"Name": "Thunder Dragon - Carcosa",
		"Desc": "Thunder Dragon - Carcosa",
		"TeamName": "Goddess Trial",
		"LevelList": [
			21,
			22,
			23,
			24,
			25,
			26,
			27,
			28,
			29,
			30,
			300
		],
		"StartTimeList": [
			3,
			6
		],
		"ArmysID": [
			1,
			2,
			5
		],
		"Model": "Spine/Boss/ThunderDragon_ABS/ThunderDragon_prefab.prefab",
		"Fx": "UI/Thearchy_ABS/FX/FX_UI_ThearchyThunderDragon.prefab",
		"UIModelScale": 135,
		"UIModelOffsetX": 0,
		"UIModelOffsetY": 0
	},
	{
		"ID": 4,
		"Name": "Dark Dragon Tiamat",
		"Desc": "Dark Dragon Tiamat",
		"TeamName": "Goddess Trial",
		"LevelList": [
			31,
			32,
			33,
			34,
			35,
			36,
			37,
			38,
			39,
			40,
			400
		],
		"StartTimeList": [
			7
		],
		"ArmysID": [
			3,
			4,
			11
		],
		"Model": "Spine/Boss/DarkDragon_ABS/DarkDragon_prefab.prefab",
		"Fx": "UI/Thearchy_ABS/FX/FX_UI_ThearchyDarkDragon.prefab",
		"UIModelScale": 135,
		"UIModelOffsetX": 0,
		"UIModelOffsetY": 0
	}
]