[
	{
		"ID": 1,
		"BonusHeroIdList": [
			29,
			15,
			10,
			12,
			27,
			55,
			56,
			5,
			1,
			4,
			3
		]
	},
	{
		"ID": 2,
		"BonusHeroIdList": [
			10,
			14,
			15,
			12,
			13,
			1,
			4,
			3,
			24,
			48,
			45
		]
	},
	{
		"ID": 3,
		"BonusHeroIdList": [
			15,
			10,
			12,
			14,
			5,
			11,
			1,
			4,
			35,
			19,
			22
		]
	},
	{
		"ID": 4,
		"BonusHeroIdList": [
			29,
			27,
			37,
			38,
			30,
			31,
			33,
			34,
			36,
			40,
			41
		]
	},
	{
		"ID": 5,
		"BonusHeroIdList": [
			6,
			7,
			12,
			25,
			17,
			18,
			21,
			20,
			23,
			43,
			44
		]
	},
	{
		"ID": 6,
		"BonusHeroIdList": [
			6,
			25,
			7,
			12,
			32,
			16,
			49,
			20,
			23,
			43,
			47
		]
	},
	{
		"ID": 7,
		"BonusHeroIdList": [
			9,
			8,
			25,
			7,
			28,
			54,
			17,
			49,
			20,
			39
		]
	},
	{
		"ID": 8,
		"BonusHeroIdList": [
			29,
			14,
			8,
			26,
			51,
			52,
			5,
			11,
			30,
			31,
			33
		]
	},
	{
		"ID": 9,
		"BonusHeroIdList": [
			6,
			25,
			26,
			53,
			32,
			17,
			16,
			21,
			18,
			42,
			24
		]
	},
	{
		"ID": 10,
		"BonusHeroIdList": [
			27,
			52,
			28,
			14,
			34,
			36,
			39,
			11,
			19,
			44,
			41
		]
	},
	{
		"ID": 11,
		"BonusHeroIdList": [
			55,
			56,
			60,
			61,
			53,
			54,
			51,
			52,
			57,
			58
		]
	},
	{
		"ID": 12,
		"BonusHeroIdList": [
			59,
			9,
			7,
			28,
			37,
			61,
			31,
			4,
			22
		]
	}
]