[
	{
		"ID": 1,
		"Name": "Check-in",
		"OpenTrigger": [
			"UserGuideTrigger_WorldUIGetReady"
		],
		"OpenCondition": "UserGuideCondition_TodayIsSignedEqual",
		"OCParam": "FALSE",
		"FirstStepID": 32010,
		"CompleteTrigger": "UserGuideTrigger_",
		"CTParam": "",
		"OpenCondition2": "UserGuideCondition_",
		"OCParam2": ""
	},
	{
		"ID": 49,
		"Name": "Announcement",
		"OpenTrigger": [
			"UserGuideTrigger_WorldUIGetReady"
		],
		"OpenCondition": "UserGuideCondition_NeverOpenedActivityNoticeAndPlayerLevelReachN",
		"OCParam": "15",
		"FirstStepID": 39010,
		"CompleteTrigger": "UserGuideTrigger_",
		"CTParam": "",
		"OpenCondition2": "UserGuideCondition_",
		"OCParam2": ""
	},
	{
		"ID": 2,
		"Name": "Map Mobile Guidance",
		"OpenTrigger": [
			"UserGuideTrigger_WorldUIGetReady",
			"UserGuideTrigger_HideObject"
		],
		"OTParam": [
			"",
			"SignUIPrefab\\RewardList\\FrameImage\\TitleImage"
		],
		"OpenCondition": "UserGuideCondition_StoryNFinished",
		"OCParam": "1",
		"FirstStepID": 4000,
		"CompleteTrigger": "UserGuideTrigger_FinishGuideStepN",
		"CTParam": "4020",
		"OpenCondition2": "UserGuideCondition_",
		"OCParam2": ""
	},
	{
		"ID": 3,
		"Name": "Trinity Voucher Draw: World UI Entrance",
		"OpenTrigger": [
			"UserGuideTrigger_WorldUIGetReady"
		],
		"OpenCondition": "UserGuideCondition_GuideNFinished",
		"OCParam": "5",
		"FirstStepID": 5060,
		"CompleteTrigger": "UserGuideTrigger_FinishGuideStepN",
		"CTParam": "5033",
		"OpenCondition2": "UserGuideCondition_",
		"OCParam2": ""
	},
	{
		"ID": 4,
		"Name": "Trinity Voucher Draw: Entrance After Free Voucher Draw",
		"OpenTrigger": [
			"UserGuideTrigger_ShowObject"
		],
		"OTParam": [
			"SelectCardUIPrefab\\MainUI\\SummonPanel\\Margin\\RightToggleGroup\\CardPoolsScrollView\\Viewport\\CardPools\\TicketSummonToggle"
		],
		"OpenCondition": "UserGuideCondition_GuideNFinished",
		"OCParam": "5",
		"FirstStepID": 5031,
		"CompleteTrigger": "UserGuideTrigger_FinishGuideStepN",
		"CTParam": "5033",
		"OpenCondition2": "UserGuideCondition_",
		"OCParam2": ""
	},
	{
		"ID": 5,
		"Name": "Free Voucher Draw",
		"OpenTrigger": [
			"UserGuideTrigger_WorldUIGetReady"
		],
		"OpenCondition": "UserGuideCondition_StoryNFinished",
		"OCParam": "2",
		"FirstStepID": 5001,
		"CompleteTrigger": "UserGuideTrigger_FinishGuideStepN",
		"CTParam": "5020",
		"OpenCondition2": "UserGuideCondition_",
		"OCParam2": ""
	},
	{
		"ID": 7,
		"Name": "Open Time Rift & Newbie Tutorial",
		"OpenTrigger": [
			"UserGuideTrigger_WorldUIGetReady"
		],
		"OpenCondition": "UserGuideCondition_StoryNFinished",
		"OCParam": "4",
		"FirstStepID": 6000,
		"CompleteTrigger": "UserGuideTrigger_FinishGuideStepN",
		"CTParam": "6050",
		"OpenCondition2": "UserGuideCondition_",
		"OCParam2": ""
	},
	{
		"ID": 9,
		"Name": "Time Rift - Switch Difficulty",
		"OpenTrigger": [
			"UserGuideTrigger_ShowObject"
		],
		"OTParam": [
			"RiftLevelUIPrefab"
		],
		"OpenCondition": "UserGuideCondition_RiftChapterNUnlockable",
		"OCParam": "11",
		"FirstStepID": 19010,
		"CompleteTrigger": "UserGuideTrigger_FinishGuideStepN",
		"CTParam": "19020",
		"OpenCondition2": "UserGuideCondition_",
		"OCParam2": ""
	},
	{
		"ID": 10,
		"Name": "Open Class Advancement & Newbie Tutorial",
		"OpenTrigger": [
			"UserGuideTrigger_ShowObject"
		],
		"OTParam": [
			"RiftLevelUIPrefab"
		],
		"OpenCondition": "UserGuideCondition_RiftLevelNPassed",
		"OCParam": "101",
		"FirstStepID": 7000,
		"CompleteTrigger": "UserGuideTrigger_FinishGuideStepN",
		"CTParam": "7050",
		"OpenCondition2": "UserGuideCondition_",
		"OCParam2": ""
	},
	{
		"ID": 11,
		"Name": "Class Advancement Function and Tutorial: World UI Portal",
		"OpenTrigger": [
			"UserGuideTrigger_WorldUIGetReady"
		],
		"OpenCondition": "UserGuideCondition_RiftLevelNPassed",
		"OCParam": "101",
		"FirstStepID": 7020,
		"CompleteTrigger": "UserGuideTrigger_FinishGuideStepN",
		"CTParam": "7050",
		"OpenCondition2": "UserGuideCondition_GuideNUnfinished",
		"OCParam2": "10"
	},
	{
		"ID": 12,
		"Name": "Hero Upgrade - Newbie Tutorial: World UI Entrance",
		"OpenTrigger": [
			"UserGuideTrigger_WorldUIGetReady"
		],
		"OpenCondition": "UserGuideCondition_GuideNFinished",
		"OCParam": "10",
		"FirstStepID": 7200,
		"CompleteTrigger": "UserGuideTrigger_FinishGuideStepN",
		"CTParam": "7100",
		"OpenCondition2": "UserGuideCondition_",
		"OCParam2": ""
	},
	{
		"ID": 13,
		"Name": "Hero Upgrade - Newbie Tutorial",
		"OpenTrigger": [
			"UserGuideTrigger_ShowObject",
			"UserGuideTrigger_HideObject",
			"UserGuideTrigger_HideObject"
		],
		"OTParam": [
			"HeroDetailUIPrefab",
			"HeroDetailJobUIPrefab\\JobEffectGroup\\MasterRewardGroup",
			"HeroDetailJobUIPrefab\\LearnedPanel"
		],
		"OpenCondition": "UserGuideCondition_GuideNFinished",
		"OCParam": "10",
		"FirstStepID": 7055,
		"CompleteTrigger": "UserGuideTrigger_FinishGuideStepN",
		"CTParam": "7100",
		"OpenCondition2": "UserGuideCondition_",
		"OCParam2": ""
	},
	{
		"ID": 15,
		"Name": "Open Aniki's Gym & Newbie Tutorial",
		"OpenTrigger": [
			"UserGuideTrigger_WorldUIGetReady"
		],
		"OpenCondition": "UserGuideCondition_GuideNFinished",
		"OCParam": "45",
		"FirstStepID": 8000,
		"CompleteTrigger": "UserGuideTrigger_FinishGuideStepN",
		"CTParam": "8040",
		"OpenCondition2": "UserGuideCondition_",
		"OCParam2": ""
	},
	{
		"ID": 17,
		"Name": "Open Random Events & Newbie Tutorial",
		"OpenTrigger": [
			"UserGuideTrigger_WorldUIGetReady"
		],
		"OpenCondition": "UserGuideCondition_StoryNFinished",
		"OCParam": "10",
		"FirstStepID": 9000,
		"CompleteTrigger": "UserGuideTrigger_FinishGuideStepN",
		"CTParam": "9020",
		"OpenCondition2": "UserGuideCondition_",
		"OCParam2": ""
	},
	{
		"ID": 19,
		"Name": "Open Arena Gym & Newbie Tutorial",
		"OpenTrigger": [
			"UserGuideTrigger_WorldUIGetReady"
		],
		"OpenCondition": "UserGuideCondition_StoryNFinished",
		"OCParam": "5",
		"FirstStepID": 10000,
		"CompleteTrigger": "UserGuideTrigger_FinishGuideStepN",
		"CTParam": "10010",
		"OpenCondition2": "UserGuideCondition_",
		"OCParam2": ""
	},
	{
		"ID": 21,
		"Name": "Open Goddess Trial & Newbie Tutorial",
		"OpenTrigger": [
			"UserGuideTrigger_WorldUIGetReady"
		],
		"OpenCondition": "UserGuideCondition_StoryNFinished",
		"OCParam": "12",
		"FirstStepID": 11000,
		"CompleteTrigger": "UserGuideTrigger_FinishGuideStepN",
		"CTParam": "11030",
		"OpenCondition2": "UserGuideCondition_",
		"OCParam2": ""
	},
	{
		"ID": 23,
		"Name": "Newbie Combat Tutorial: Prologue",
		"OpenTrigger": [
			"UserGuideTrigger_SelectBattleHeroN"
		],
		"OTParam": [
			"1500"
		],
		"OpenCondition": "UserGuideCondition_IsRunningBattleN",
		"OCParam": "100",
		"FirstStepID": 10,
		"CompleteTrigger": "UserGuideTrigger_FinishGuideStepN",
		"CTParam": "240",
		"OpenCondition2": "UserGuideCondition_",
		"OCParam2": ""
	},
	{
		"ID": 24,
		"Name": "Newbie Combat Tutorial: Chapter 1",
		"OpenTrigger": [
			"UserGuideTrigger_SelectBattleHeroN"
		],
		"OTParam": [
			"4"
		],
		"OpenCondition": "UserGuideCondition_IsRunningBattleN",
		"OCParam": "101",
		"FirstStepID": 1000,
		"CompleteTrigger": "UserGuideTrigger_FinishGuideStepN",
		"CTParam": "1060",
		"EnforceHeros": [
			4,
			3,
			1
		],
		"OpenCondition2": "UserGuideCondition_",
		"OCParam2": ""
	},
	{
		"ID": 25,
		"Name": "Newbie Combat Tutorial: Unit Restriction",
		"OpenTrigger": [
			"UserGuideTrigger_SelectBattleHeroN"
		],
		"OTParam": [
			"1"
		],
		"OpenCondition": "UserGuideCondition_IsRunningBattleN",
		"OCParam": "102",
		"FirstStepID": 2000,
		"CompleteTrigger": "UserGuideTrigger_FinishGuideStepN",
		"CTParam": "2030",
		"EnforceHeros": [
			1,
			3,
			4
		],
		"OpenCondition2": "UserGuideCondition_",
		"OCParam2": ""
	},
	{
		"ID": 26,
		"Name": "Newbie Combat Tutorial: Dragging Heroes to Battle",
		"OpenTrigger": [
			"UserGuideTrigger_ShowObject"
		],
		"OTParam": [
			"BattleCommonUIPrefab"
		],
		"OpenCondition": "UserGuideCondition_IsRunningBattleN",
		"OCParam": "250",
		"FirstStepID": 3000,
		"CompleteTrigger": "UserGuideTrigger_FinishGuideStepN",
		"CTParam": "3020",
		"EnforceHeros": [
			1,
			3,
			4,
			24,
			999
		],
		"OpenCondition2": "UserGuideCondition_",
		"OCParam2": ""
	},
	{
		"ID": 27,
		"Name": "Newbie Combat Tutorial: Guarding Skills",
		"OpenTrigger": [
			"UserGuideTrigger_SelectBattleHeroN"
		],
		"OTParam": [
			"4"
		],
		"OpenCondition": "UserGuideCondition_IsRunningBattleN",
		"OCParam": "103",
		"FirstStepID": 20000,
		"CompleteTrigger": "UserGuideTrigger_FinishGuideStepN",
		"CTParam": "20080",
		"EnforceHeros": [
			4,
			1,
			3
		],
		"OpenCondition2": "UserGuideCondition_",
		"OCParam2": ""
	},
	{
		"ID": 28,
		"Name": "Newbie Combat Tutorial: Jessica Ranged Skills",
		"OpenTrigger": [
			"UserGuideTrigger_SelectBattleHeroN"
		],
		"OTParam": [
			"22"
		],
		"OpenCondition": "UserGuideCondition_IsRunningBattleN",
		"OCParam": "254",
		"FirstStepID": 21000,
		"CompleteTrigger": "UserGuideTrigger_FinishGuideStepN",
		"CTParam": "21050",
		"EnforceHeros": [
			22
		],
		"OpenCondition2": "UserGuideCondition_",
		"OCParam2": ""
	},
	{
		"ID": 29,
		"Name": "Newbie Combat Tutorial: Changing Units in Preparation Stage",
		"OpenTrigger": [
			"UserGuideTrigger_ShowObject"
		],
		"OTParam": [
			"BattleCommonUIPrefab"
		],
		"OpenCondition": "UserGuideCondition_IsRunningBattleN",
		"OCParam": "272",
		"FirstStepID": 22000,
		"CompleteTrigger": "UserGuideTrigger_FinishGuideStepN",
		"CTParam": "22050",
		"EnforceHeros": [
			1
		],
		"OpenCondition2": "UserGuideCondition_",
		"OCParam2": ""
	},
	{
		"ID": 36,
		"Name": "Hero Upgrade",
		"OpenTrigger": [
			"UserGuideTrigger_WorldUIGetReady"
		],
		"OpenCondition": "UserGuideCondition_IsWayPointNArrived",
		"OCParam": "16",
		"FirstStepID": 12010,
		"CompleteTrigger": "UserGuideTrigger_FinishGuideStepN",
		"CTParam": "12030",
		"OpenCondition2": "UserGuideCondition_",
		"OCParam2": ""
	},
	{
		"ID": 31,
		"Name": "Change Avatar",
		"OpenTrigger": [
			"UserGuideTrigger_WorldUIGetReady"
		],
		"OpenCondition": "UserGuideCondition_IsWayPointNArrived",
		"OCParam": "11",
		"FirstStepID": 13010,
		"CompleteTrigger": "UserGuideTrigger_FinishGuideStepN",
		"CTParam": "13040",
		"OpenCondition2": "UserGuideCondition_",
		"OCParam2": ""
	},
	{
		"ID": 32,
		"Name": "Memory Shard Summon",
		"OpenTrigger": [
			"UserGuideTrigger_WorldUIGetReady"
		],
		"OpenCondition": "UserGuideCondition_IsHeroNComposable",
		"OCParam": "22",
		"FirstStepID": 14010,
		"CompleteTrigger": "UserGuideTrigger_FinishGuideStepN",
		"CTParam": "14040",
		"OpenCondition2": "UserGuideCondition_",
		"OCParam2": ""
	},
	{
		"ID": 33,
		"Name": "Side Mission",
		"OpenTrigger": [
			"UserGuideTrigger_WorldUIGetReady"
		],
		"OpenCondition": "UserGuideCondition_IsWayPointNArrived",
		"OCParam": "3",
		"FirstStepID": 15010,
		"CompleteTrigger": "UserGuideTrigger_FinishGuideStepN",
		"CTParam": "15020",
		"OpenCondition2": "UserGuideCondition_",
		"OCParam2": ""
	},
	{
		"ID": 34,
		"Name": "Boss War",
		"OpenTrigger": [
			"UserGuideTrigger_WorldUIGetReady"
		],
		"OpenCondition": "UserGuideCondition_IsWayPointNArrived",
		"OCParam": "55",
		"FirstStepID": 16010,
		"CompleteTrigger": "UserGuideTrigger_FinishGuideStepN",
		"CTParam": "16020",
		"OpenCondition2": "UserGuideCondition_",
		"OCParam2": ""
	},
	{
		"ID": 35,
		"Name": "EXP Potion",
		"OpenTrigger": [
			"UserGuideTrigger_WorldUIGetReady"
		],
		"OpenCondition": "UserGuideCondition_IsWayPointNArrived",
		"OCParam": "6",
		"FirstStepID": 17010,
		"CompleteTrigger": "UserGuideTrigger_FinishGuideStepN",
		"CTParam": "17050",
		"OpenCondition2": "UserGuideCondition_",
		"OCParam2": ""
	},
	{
		"ID": 37,
		"Name": "Equipment",
		"OpenTrigger": [
			"UserGuideTrigger_WorldUIGetReady"
		],
		"OpenCondition": "UserGuideCondition_StoryNFinished",
		"OCParam": "3",
		"FirstStepID": 18010,
		"CompleteTrigger": "UserGuideTrigger_FinishGuideStepN",
		"CTParam": "18120",
		"OpenCondition2": "UserGuideCondition_",
		"OCParam2": ""
	},
	{
		"ID": 38,
		"Name": "Treasure",
		"OpenTrigger": [
			"UserGuideTrigger_WorldUIGetReady"
		],
		"OpenCondition": "UserGuideCondition_StoryNFinished",
		"OCParam": "13",
		"FirstStepID": 30010,
		"CompleteTrigger": "UserGuideTrigger_FinishGuideStepN",
		"CTParam": "30050",
		"OpenCondition2": "UserGuideCondition_",
		"OCParam2": ""
	},
	{
		"ID": 39,
		"Name": "Hero Training",
		"OpenTrigger": [
			"UserGuideTrigger_WorldUIGetReady"
		],
		"OpenCondition": "UserGuideCondition_StoryNFinished",
		"OCParam": "8",
		"FirstStepID": 31010,
		"CompleteTrigger": "UserGuideTrigger_FinishGuideStepN",
		"CTParam": "31050",
		"OpenCondition2": "UserGuideCondition_",
		"OCParam2": ""
	},
	{
		"ID": 40,
		"Name": "Bonding Gift",
		"OpenTrigger": [
			"UserGuideTrigger_WorldUIGetReady"
		],
		"OpenCondition": "UserGuideCondition_StoryNFinished",
		"OCParam": "14",
		"FirstStepID": 33010,
		"CompleteTrigger": "UserGuideTrigger_FinishGuideStepN",
		"CTParam": "33092",
		"OpenCondition2": "UserGuideCondition_",
		"OCParam2": ""
	},
	{
		"ID": 41,
		"Name": "Bonding Realm",
		"OpenTrigger": [
			"UserGuideTrigger_WorldUIGetReady"
		],
		"OpenCondition": "UserGuideCondition_GuideNFinished",
		"OCParam": "40",
		"FirstStepID": 34030,
		"CompleteTrigger": "UserGuideTrigger_FinishGuideStepN",
		"CTParam": "34050",
		"OpenCondition2": "UserGuideCondition_",
		"OCParam2": ""
	},
	{
		"ID": 42,
		"Name": "Joint Battle",
		"OpenTrigger": [
			"UserGuideTrigger_WorldUIGetReady"
		],
		"OpenCondition": "UserGuideCondition_StoryNFinished",
		"OCParam": "16",
		"FirstStepID": 35010,
		"CompleteTrigger": "UserGuideTrigger_FinishGuideStepN",
		"CTParam": "35060",
		"OpenCondition2": "UserGuideCondition_",
		"OCParam2": ""
	},
	{
		"ID": 43,
		"Name": "Alchemy",
		"OpenTrigger": [
			"UserGuideTrigger_WorldUIGetReady"
		],
		"OpenCondition": "UserGuideCondition_StoryNFinished",
		"OCParam": "15",
		"FirstStepID": 36010,
		"CompleteTrigger": "UserGuideTrigger_FinishGuideStepN",
		"CTParam": "36056",
		"OpenCondition2": "UserGuideCondition_",
		"OCParam2": ""
	},
	{
		"ID": 44,
		"Name": "Enchant",
		"OpenTrigger": [
			"UserGuideTrigger_FinishGuideStepN",
			"UserGuideTrigger_ShowObject"
		],
		"OTParam": [
			"36070",
			"BagListUIPrefab"
		],
		"OpenCondition": "UserGuideCondition_GuideNFinished",
		"OCParam": "43",
		"FirstStepID": 37010,
		"CompleteTrigger": "UserGuideTrigger_FinishGuideStepN",
		"CTParam": "37040",
		"OpenCondition2": "UserGuideCondition_",
		"OCParam2": ""
	},
	{
		"ID": 45,
		"Name": "Training Field",
		"OpenTrigger": [
			"UserGuideTrigger_WorldUIGetReady"
		],
		"OpenCondition": "UserGuideCondition_StoryNFinished",
		"OCParam": "7",
		"FirstStepID": 38010,
		"CompleteTrigger": "UserGuideTrigger_FinishGuideStepN",
		"CTParam": "38070",
		"OpenCondition2": "UserGuideCondition_",
		"OCParam2": ""
	},
	{
		"ID": 46,
		"Name": "Newbie Combat Tutorial: Auto skip the preparation stage of battle 104",
		"OpenTrigger": [
			"UserGuideTrigger_SelectBattleHeroN"
		],
		"OTParam": [
			"9999"
		],
		"OpenCondition": "UserGuideCondition_IsRunningBattleN",
		"OCParam": "104",
		"FirstStepID": 0,
		"CompleteTrigger": "UserGuideTrigger_FinishUserGuideN",
		"CTParam": "26",
		"OpenCondition2": "UserGuideCondition_",
		"OCParam2": ""
	},
	{
		"ID": 47,
		"Name": "Newbie Combat Tutorial: Auto skip the preparation stage of battle 270",
		"OpenTrigger": [
			"UserGuideTrigger_SelectBattleHeroN"
		],
		"OTParam": [
			"9999"
		],
		"OpenCondition": "UserGuideCondition_IsRunningBattleN",
		"OCParam": "270",
		"FirstStepID": 0,
		"CompleteTrigger": "UserGuideTrigger_FinishUserGuideN",
		"CTParam": "46",
		"OpenCondition2": "UserGuideCondition_",
		"OCParam2": ""
	},
	{
		"ID": 48,
		"Name": "Enchantment: World UI Entrance",
		"OpenTrigger": [
			"UserGuideTrigger_WorldUIGetReady"
		],
		"OpenCondition": "UserGuideCondition_GuideNFinished",
		"OCParam": "43",
		"FirstStepID": 37000,
		"CompleteTrigger": "UserGuideTrigger_FinishGuideStepN",
		"CTParam": "37040",
		"OpenCondition2": "UserGuideCondition_",
		"OCParam2": ""
	},
	{
		"ID": 50,
		"Name": "Open World Arena & Newbie Tutorial",
		"OpenTrigger": [
			"UserGuideTrigger_WorldUIGetReady"
		],
		"OpenCondition": "UserGuideCondition_PlayerLevelReachN",
		"OCParam": "28",
		"FirstStepID": 40000,
		"CompleteTrigger": "UserGuideTrigger_FinishGuideStepN",
		"CTParam": "40010",
		"OpenCondition2": "UserGuideCondition_",
		"OCParam2": ""
	},
	{
		"ID": 51,
		"Name": "Guidance after Clock of Forgiveness Purchase",
		"OpenTrigger": [
			"UserGuideTrigger_BuyGiftStoreGoodsN"
		],
		"OTParam": [
			"3"
		],
		"OpenCondition": "UserGuideCondition_",
		"OCParam": "",
		"FirstStepID": 41000,
		"CompleteTrigger": "UserGuideTrigger_FinishGuideStepN",
		"CTParam": "41010",
		"OpenCondition2": "UserGuideCondition_",
		"OCParam2": ""
	},
	{
		"ID": 52,
		"Name": "Timeless Trial",
		"OpenTrigger": [
			"UserGuideTrigger_WorldUIGetReady"
		],
		"OpenCondition": "UserGuideCondition_PlayerLevelReachN",
		"OCParam": "30",
		"FirstStepID": 42000,
		"CompleteTrigger": "UserGuideTrigger_FinishGuideStepN",
		"CTParam": "42040",
		"OpenCondition2": "UserGuideCondition_",
		"OCParam2": ""
	},
	{
		"ID": 53,
		"Name": "Eternal Temple",
		"OpenTrigger": [
			"UserGuideTrigger_WorldUIGetReady"
		],
		"OpenCondition": "UserGuideCondition_PlayerLevelReachN",
		"OCParam": "55",
		"FirstStepID": 43000,
		"CompleteTrigger": "UserGuideTrigger_FinishGuideStepN",
		"CTParam": "43030",
		"OpenCondition2": "UserGuideCondition_",
		"OCParam2": ""
	},
	{
		"ID": 54,
		"Name": "Unlock Apex Arena function.",
		"OpenTrigger": [
			"UserGuideTrigger_WorldUIGetReady"
		],
		"OpenCondition": "UserGuideCondition_PlayerLevelReachN",
		"OCParam": "60",
		"FirstStepID": 44000,
		"CompleteTrigger": "UserGuideTrigger_FinishGuideStepN",
		"CTParam": "44020",
		"OpenCondition2": "UserGuideCondition_",
		"OCParam2": ""
	},
	{
		"ID": 55,
		"Name": "Apex Arena screen guidance.",
		"OpenTrigger": [
			"UserGuideTrigger_ShowObject"
		],
		"OTParam": [
			"ArenaTopUIPrefab\\Detail\\Panels\\TitleImage"
		],
		"OpenCondition": "UserGuideCondition_",
		"OCParam": "",
		"FirstStepID": 45000,
		"CompleteTrigger": "UserGuideTrigger_FinishGuideStepN",
		"CTParam": "45010",
		"OpenCondition2": "UserGuideCondition_",
		"OCParam2": ""
	},
	{
		"ID": 56,
		"Name": "Apex Arena Team Formation screen guidance.",
		"OpenTrigger": [
			"UserGuideTrigger_ShowObject"
		],
		"OTParam": [
			"ArenaTopTeamCompiledUIPrefab\\TopBgImage\\Title"
		],
		"OpenCondition": "UserGuideCondition_",
		"OCParam": "",
		"FirstStepID": 46000,
		"CompleteTrigger": "UserGuideTrigger_FinishGuideStepN",
		"CTParam": "46000",
		"OpenCondition2": "UserGuideCondition_",
		"OCParam2": ""
	},
	{
		"ID": 57,
		"Name": "Apex Arena battle guidance.",
		"OpenTrigger": [
			"UserGuideTrigger_ShowObject"
		],
		"OTParam": [
			"PeakArenaBattlePrepareUIPrefab\\BanHeroMarginPanel\\LeftGroup\\IntoBattleGroup\\MyText"
		],
		"OpenCondition": "UserGuideCondition_",
		"OCParam": "",
		"FirstStepID": 47000,
		"CompleteTrigger": "UserGuideTrigger_FinishGuideStepN",
		"CTParam": "47000",
		"OpenCondition2": "UserGuideCondition_",
		"OCParam2": ""
	},
	{
		"ID": 58,
		"Name": "Secret Realm Sweep Guide",
		"OpenTrigger": [
			"UserGuideTrigger_ShowObject"
		],
		"OTParam": [
			"SecretBlessingSmall"
		],
		"OpenCondition": "UserGuideCondition_",
		"OCParam": "",
		"FirstStepID": 48000,
		"CompleteTrigger": "UserGuideTrigger_FinishGuideStepN",
		"CTParam": "48010",
		"OpenCondition2": "UserGuideCondition_",
		"OCParam2": ""
	}
]